Controller,6,10,77,0
Controller,6,7,127,0
Pitch_Bend,6,64,0,0
Controller,6,101,0,0
Controller,6,100,0,0
Controller,6,6,12,0
Controller,6,10,77,0
Controller,6,7,127,0
Pitch_Bend,6,64,0,0
Program_Change,6,89,,0
Controller,6,101,0,0
Controller,6,100,0,0
Controller,6,6,12,0
Controller,6,10,77,0
Controller,6,7,127,0
Pitch_Bend,6,64,0,0
Program_Change,6,89,,0
Controller,6,7,127,0
Controller,6,10,77,0
Controller,6,101,0,0
Controller,6,100,0,0
Controller,6,6,12,0
Controller,6,10,77,0
Controller,6,7,127,0
Pitch_Bend,6,64,0,0
Program_Change,6,89,,0
Controller,6,7,127,0
Controller,6,10,77,0
On,6,39,102,0
Off,6,39,,2.03835227272727
On,6,43,102,2.72727272727273
Off,6,43,,4.765625
On,6,36,102,5.45454545454545
Off,6,36,,7.49289772727273
On,6,34,102,8.18181818181818
Off,6,34,,10.2201704545455
On,6,43,102,10.9090909090909
Off,6,43,,12.9474431818182
On,6,41,102,13.6363636363636
Off,6,41,,15.6747159090909
On,6,39,102,16.3636363636364
Off,6,39,,18.4019886363636
On,6,41,102,19.0909090909091
Off,6,41,,21.1292613636364
On,6,68,61,46.3636363636364
On,6,44,61,46.3636363636364
Off,6,44,,49.0838068181818
Off,6,68,,49.0838068181818
On,6,67,61,49.0909090909091
On,6,43,61,49.0909090909091
Off,6,43,,51.8110795454545
Off,6,67,,51.8110795454545
On,6,72,61,51.8181818181818
On,6,48,61,51.8181818181818
Off,6,72,,54.5383522727273
On,6,72,53,54.5454545454545
Off,6,48,,57.265625
Off,6,72,,57.265625
On,6,44,45,57.2727272727273
On,6,68,45,57.2727272727273
Off,6,68,,59.9928977272727
Off,6,44,,59.9928977272727
On,6,47,43,60
On,6,71,43,60
Off,6,71,,62.7201704545454
Off,6,47,,62.7201704545454
On,6,44,49,62.7272727272727
On,6,68,49,62.7272727272727
Off,6,68,,64.0838068181818
Off,6,44,,64.0838068181818
On,6,46,50,64.0909090909091
On,6,70,50,64.0909090909091
Off,6,70,,65.4474431818182
Off,6,46,,65.4474431818182
On,6,43,56,65.4545454545454
On,6,67,56,65.4545454545454
Off,6,67,,66.8110795454545
Off,6,43,,66.8110795454545
On,6,43,58,66.8181818181818
On,6,67,58,66.8181818181818
Off,6,67,,68.1747159090909
Off,6,43,,68.1747159090909
On,6,39,102,68.1818181818182
Off,6,39,,70.2201704545455
On,6,43,102,70.9090909090909
Off,6,43,,72.9474431818182
On,6,36,102,73.6363636363636
Off,6,36,,75.6747159090909
On,6,34,102,76.3636363636364
Off,6,34,,78.4019886363637
On,6,43,102,79.0909090909091
Off,6,43,,81.1292613636364
On,6,41,102,81.8181818181819
Off,6,41,,83.8565340909091
On,6,39,102,84.5454545454546
Off,6,39,,86.5838068181819
On,6,41,102,87.2727272727273
Off,6,41,,89.3110795454546
On,6,48,57,95.4545454545455
Off,6,48,,100.901988636364
On,6,46,53,100.909090909091
Off,6,46,,106.356534090909
On,6,48,53,106.363636363636
Off,6,48,,111.811079545455
On,6,50,53,111.818181818182
Off,6,50,,117.265625
On,6,44,61,117.272727272727
On,6,68,61,117.272727272727
Off,6,68,,119.992897727273
Off,6,44,,119.992897727273
On,6,67,61,120
On,6,43,61,120
Off,6,43,,122.720170454546
Off,6,67,,122.720170454546
On,6,48,61,122.727272727273
On,6,72,61,122.727272727273
Off,6,72,,125.447443181818
On,6,72,53,125.454545454546
Off,6,48,,128.174715909091
Off,6,72,,128.174715909091
On,6,44,45,128.181818181818
On,6,68,45,128.181818181818
Off,6,68,,130.901988636364
Off,6,44,,130.901988636364
On,6,47,43,130.909090909091
On,6,71,43,130.909090909091
Off,6,71,,133.629261363636
Off,6,47,,133.629261363636
On,6,44,49,133.636363636364
On,6,68,49,133.636363636364
Off,6,68,,134.992897727273
Off,6,44,,134.992897727273
On,6,46,50,135
On,6,70,50,135
Off,6,70,,136.356534090909
Off,6,46,,136.356534090909
On,6,67,56,136.363636363636
On,6,43,56,136.363636363636
Off,6,43,,137.720170454546
Off,6,67,,137.720170454546
On,6,67,58,137.727272727273
On,6,43,58,137.727272727273
Off,6,43,,139.083806818182
Off,6,67,,139.083806818182
On,6,39,102,139.090909090909
Off,6,39,,141.129261363636
On,6,43,102,141.818181818182
Off,6,43,,143.856534090909
On,6,36,102,144.545454545455
Off,6,36,,146.583806818182
On,6,34,102,147.272727272727
Off,6,34,,149.311079545455
On,6,43,102,150
Off,6,43,,152.038352272727
On,6,41,102,152.727272727273
Off,6,41,,154.765625
On,6,39,102,155.454545454545
Off,6,39,,157.492897727273
On,6,41,102,158.181818181818
Off,6,41,,160.220170454545
On,6,39,102,160.909090909091
Off,6,39,,162.947443181818
On,6,43,102,163.636363636364
Off,6,43,,165.674715909091
On,6,36,102,166.363636363636
Off,6,36,,168.401988636363
On,6,34,102,169.090909090909
Off,6,34,,171.129261363636
On,6,43,102,171.818181818182
Off,6,43,,173.856534090909
On,6,41,102,174.545454545454
Off,6,41,,176.583806818182
On,6,39,102,177.272727272727
Off,6,39,,179.311079545454
On,6,41,102,180
Off,6,41,,182.038352272727
On,6,39,102,182.727272727272
Off,6,39,,184.765625
On,6,43,102,185.454545454545
Off,6,43,,187.492897727272
On,6,36,102,188.181818181818
Off,6,36,,190.220170454545
On,6,34,102,190.909090909091
Off,6,34,,192.947443181818
On,6,43,102,193.636363636363
Off,6,43,,195.674715909091
On,6,41,102,196.363636363636
Off,6,41,,198.401988636363
On,6,39,102,199.090909090909
Off,6,39,,201.129261363636
On,6,41,102,201.818181818181
Off,6,41,,203.856534090909
On,6,39,102,204.545454545454
Off,6,39,,206.583806818181
On,6,43,102,207.272727272727
Off,6,43,,209.311079545454
On,6,36,102,210
Off,6,36,,212.038352272727
On,6,34,102,212.727272727272
Off,6,34,,214.765624999999
On,6,43,102,215.454545454545
Off,6,43,,217.492897727272
On,6,41,102,218.181818181818
Off,6,41,,220.220170454545
On,6,39,102,220.90909090909
Off,6,39,,222.947443181818
On,6,41,102,223.636363636363
Off,6,41,,225.67471590909
On,6,39,102,226.363636363636
Off,6,39,,228.401988636363
On,6,43,102,229.090909090908
Off,6,43,,231.129261363636
On,6,36,102,231.818181818181
Off,6,36,,233.856534090908
On,6,34,102,234.545454545454
Off,6,34,,236.583806818181
On,6,43,102,237.272727272727
Off,6,43,,239.311079545454
On,6,41,102,239.999999999999
Off,6,41,,242.038352272727
On,6,39,102,242.727272727272
Off,6,39,,244.765624999999
On,6,41,102,245.454545454545
Off,6,41,,247.492897727272
On,6,39,102,248.181818181817
Off,6,39,,250.220170454545
On,6,43,102,250.90909090909
Off,6,43,,252.947443181817
On,6,36,102,253.636363636363
Off,6,36,,255.67471590909
On,6,34,102,256.363636363636
Off,6,34,,258.401988636363
On,6,43,102,259.090909090908
Off,6,43,,261.129261363635
On,6,41,102,261.818181818181
Off,6,41,,263.856534090908
On,6,39,102,264.545454545454
Off,6,39,,266.583806818181
On,6,41,102,267.272727272726
Off,6,41,,269.311079545454
On,6,39,102,269.999999999999
Off,6,39,,272.038352272726
On,6,43,102,272.727272727272
Off,6,43,,274.765624999999
On,6,36,102,275.454545454545
Off,6,36,,277.492897727272
On,6,34,102,278.181818181818
Off,6,34,,280.220170454545
On,6,43,102,280.90909090909
Off,6,43,,282.947443181818
On,6,41,102,283.636363636363
Off,6,41,,285.67471590909
On,6,39,102,286.363636363636
Off,6,39,,288.401988636363
On,6,41,102,289.090909090909
Off,6,41,,291.129261363636
Controller,6,101,0,297.272727272727
Controller,6,100,0,297.272727272727
Controller,6,6,12,297.272727272727
Controller,6,10,77,297.272727272727
Controller,6,7,127,297.272727272727
Pitch_Bend,6,64,0,297.272727272727
Program_Change,6,89,,297.272727272727
Controller,6,101,0,297.272727272727
Controller,6,100,0,297.272727272727
Controller,6,6,12,297.272727272727
Controller,6,10,77,297.272727272727
Controller,6,7,127,297.272727272727
Pitch_Bend,6,64,0,297.272727272727
Program_Change,6,89,,297.272727272727
Controller,6,101,0,297.272727272727
Controller,6,100,0,297.272727272727
Controller,6,6,12,297.272727272727
Controller,6,10,77,297.272727272727
Controller,6,7,127,297.272727272727
Pitch_Bend,6,64,0,297.272727272727
Program_Change,6,89,,297.272727272727
