Controller,5,10,46,0
Controller,5,7,127,0
Pitch_Bend,5,64,0,0
Controller,5,101,0,0
Controller,5,100,0,0
Controller,5,6,12,0
Controller,5,10,46,0
Controller,5,7,127,0
Pitch_Bend,5,64,0,0
Program_Change,5,50,,0
Controller,5,101,0,0
Controller,5,100,0,0
Controller,5,6,12,0
Controller,5,10,46,0
Controller,5,7,127,0
Pitch_Bend,5,64,0,0
Program_Change,5,50,,0
Controller,5,7,127,0
Controller,5,10,46,0
Controller,5,101,0,0
Controller,5,100,0,0
Controller,5,6,12,0
Controller,5,10,46,0
Controller,5,7,127,0
Pitch_Bend,5,64,0,0
Program_Change,5,50,,0
Controller,5,7,127,0
Controller,5,10,46,0
On,5,63,55,0
On,5,51,55,0
On,5,67,55,0
Off,5,67,,2.72017045454545
Off,5,51,,2.72017045454545
Off,5,63,,2.72017045454545
On,5,55,54,2.72727272727273
On,5,62,54,2.72727272727273
On,5,67,54,2.72727272727273
Off,5,67,,5.44744318181818
Off,5,62,,5.44744318181818
Off,5,55,,5.44744318181818
On,5,67,54,5.45454545454546
On,5,60,54,5.45454545454546
On,5,51,54,5.45454545454546
On,5,63,54,5.45454545454546
Off,5,63,,8.17471590909091
Off,5,51,,8.17471590909091
Off,5,60,,8.17471590909091
Off,5,67,,8.17471590909091
On,5,65,54,8.18181818181818
On,5,53,54,8.18181818181818
On,5,58,54,8.18181818181818
On,5,62,54,8.18181818181818
Off,5,62,,10.9019886363636
Off,5,58,,10.9019886363636
Off,5,53,,10.9019886363636
Off,5,65,,10.9019886363636
On,5,70,54,10.9090909090909
On,5,67,54,10.9090909090909
On,5,58,54,10.9090909090909
Off,5,58,,13.6292613636364
Off,5,67,,13.6292613636364
Off,5,70,,13.6292613636364
On,5,57,54,13.6363636363636
On,5,69,54,13.6363636363636
On,5,65,54,13.6363636363636
Off,5,57,,16.3565340909091
Off,5,69,,16.3565340909091
Off,5,65,,16.3565340909091
On,5,55,54,16.3636363636364
On,5,67,54,16.3636363636364
On,5,63,54,16.3636363636364
Off,5,55,,19.0838068181818
Off,5,67,,19.0838068181818
Off,5,63,,19.0838068181818
On,5,53,53,19.0909090909091
On,5,62,53,19.0909090909091
On,5,65,53,19.0909090909091
Off,5,65,,21.8110795454545
Off,5,62,,21.8110795454545
Off,5,53,,21.8110795454545
Controller,5,7,69,46.3636363636364
On,5,68,56,46.3636363636364
On,5,63,56,46.3636363636364
On,5,56,56,46.3636363636364
Controller,5,7,70,46.4204545454545
Controller,5,7,71,46.4701704545455
Controller,5,7,72,46.5269886363636
Controller,5,7,73,46.5767045454546
Controller,5,7,74,46.6264204545455
Controller,5,7,75,46.6832386363636
Controller,5,7,76,46.7329545454546
Controller,5,7,77,46.7897727272727
Controller,5,7,78,46.8394886363637
Controller,5,7,79,46.8892045454546
Controller,5,7,80,46.9460227272727
Controller,5,7,81,46.9957386363637
Controller,5,7,82,47.0454545454546
Controller,5,7,83,47.1022727272728
Controller,5,7,84,47.1519886363637
Controller,5,7,85,47.2088068181819
Controller,5,7,86,47.2585227272728
Controller,5,7,87,47.3082386363637
Controller,5,7,88,47.3650568181819
Controller,5,7,89,47.4147727272728
Controller,5,7,90,47.471590909091
Controller,5,7,91,47.5213068181819
Controller,5,7,92,47.5710227272728
Controller,5,7,93,47.627840909091
Controller,5,7,94,47.6775568181819
Controller,5,7,95,47.7272727272728
Controller,5,7,96,47.784090909091
Controller,5,7,97,47.8338068181819
Controller,5,7,98,47.8906250000001
Controller,5,7,99,47.940340909091
Controller,5,7,100,47.9900568181819
Controller,5,7,101,48.0468750000001
Controller,5,7,102,48.096590909091
Controller,5,7,103,48.1534090909092
Controller,5,7,104,48.2031250000001
Controller,5,7,105,48.252840909091
Controller,5,7,106,48.3096590909092
Controller,5,7,107,48.3593750000001
Controller,5,7,108,48.409090909091
Controller,5,7,109,48.4659090909092
Controller,5,7,110,48.5156250000001
Controller,5,7,111,48.5724431818183
Controller,5,7,112,48.6221590909092
Controller,5,7,113,48.6718750000001
Controller,5,7,114,48.7286931818183
Controller,5,7,115,48.7784090909092
Controller,5,7,116,48.8352272727274
Controller,5,7,117,48.8849431818183
Controller,5,7,118,48.9346590909092
Controller,5,7,119,48.9914772727274
Controller,5,7,120,49.0411931818183
Off,5,56,,49.0838068181819
Off,5,63,,49.0838068181819
Off,5,68,,49.0838068181819
Controller,5,7,75,49.0909090909092
On,5,67,50,49.0909090909092
On,5,62,50,49.0909090909092
On,5,55,50,49.0909090909092
Controller,5,7,76,49.1619318181819
Controller,5,7,77,49.2258522727274
Controller,5,7,78,49.2897727272729
Controller,5,7,79,49.3607954545456
Controller,5,7,80,49.424715909091
Controller,5,7,81,49.4886363636365
Controller,5,7,82,49.5596590909092
Controller,5,7,83,49.6235795454547
Controller,5,7,84,49.6875000000001
Controller,5,7,85,49.7727272727274
Controller,5,7,86,49.8508522727274
Controller,5,7,87,49.9289772727274
Controller,5,7,88,50.0000000000001
Controller,5,7,89,50.0781250000001
Controller,5,7,90,50.1562500000001
Controller,5,7,91,50.2272727272729
Controller,5,7,92,50.3053977272729
Controller,5,7,93,50.3835227272729
Controller,5,7,94,50.4545454545456
Controller,5,7,95,50.5326704545456
Controller,5,7,96,50.6107954545456
Controller,5,7,97,50.6818181818183
Controller,5,7,98,50.7599431818183
Controller,5,7,99,50.8380681818183
Controller,5,7,100,50.909090909091
Controller,5,7,101,50.987215909091
Controller,5,7,102,51.065340909091
Controller,5,7,103,51.1363636363638
Controller,5,7,104,51.2144886363638
Controller,5,7,105,51.2926136363638
Controller,5,7,106,51.3636363636365
Controller,5,7,107,51.4417613636365
Controller,5,7,108,51.5198863636365
Controller,5,7,109,51.5909090909092
Controller,5,7,110,51.6690340909092
Controller,5,7,111,51.7471590909092
Off,5,55,,51.8110795454547
Off,5,62,,51.8110795454547
Off,5,67,,51.8110795454547
Controller,5,7,70,51.818181818182
On,5,72,46,51.818181818182
On,5,67,46,51.818181818182
On,5,60,46,51.818181818182
Controller,5,7,71,51.8750000000001
Controller,5,7,72,51.9318181818183
Controller,5,7,73,51.9886363636365
Controller,5,7,74,52.0383522727274
Controller,5,7,75,52.0951704545456
Controller,5,7,76,52.1519886363638
Controller,5,7,77,52.2017045454547
Controller,5,7,78,52.2585227272729
Controller,5,7,79,52.3153409090911
Controller,5,7,80,52.365056818182
Controller,5,7,81,52.4218750000002
Controller,5,7,82,52.4786931818183
Controller,5,7,83,52.5284090909093
Controller,5,7,84,52.5852272727274
Controller,5,7,85,52.6420454545456
Controller,5,7,86,52.6917613636365
Controller,5,7,87,52.7485795454547
Controller,5,7,88,52.8053977272729
Controller,5,7,89,52.8551136363638
Controller,5,7,90,52.911931818182
Controller,5,7,91,52.9687500000002
Controller,5,7,92,53.0184659090911
Controller,5,7,93,53.0752840909093
Controller,5,7,94,53.1321022727275
Controller,5,7,95,53.1818181818184
Controller,5,7,96,53.2386363636366
Controller,5,7,97,53.2954545454547
Controller,5,7,98,53.3522727272729
Controller,5,7,99,53.4019886363638
Controller,5,7,100,53.458806818182
Controller,5,7,101,53.5156250000002
Controller,5,7,102,53.5653409090911
Controller,5,7,103,53.6221590909093
Controller,5,7,104,53.6789772727275
Controller,5,7,105,53.7286931818184
Controller,5,7,106,53.7855113636366
Controller,5,7,107,53.8423295454548
Controller,5,7,108,53.8920454545457
Controller,5,7,109,53.9488636363639
Controller,5,7,110,54.005681818182
Controller,5,7,111,54.055397727273
Controller,5,7,112,54.1122159090911
Controller,5,7,113,54.1690340909093
Controller,5,7,114,54.2187500000002
Controller,5,7,115,54.2755681818184
Controller,5,7,116,54.3323863636366
Controller,5,7,117,54.3821022727275
Controller,5,7,118,54.4389204545457
Controller,5,7,119,54.4957386363639
Off,5,60,,54.5383522727275
Off,5,67,,54.5383522727275
Off,5,72,,54.5383522727275
Controller,5,7,94,54.5454545454548
On,5,60,45,54.5454545454548
On,5,67,45,54.5454545454548
On,5,72,45,54.5454545454548
Controller,5,7,95,54.6519886363639
Controller,5,7,96,54.7514204545457
Controller,5,7,97,54.8508522727275
Controller,5,7,98,54.9502840909093
Controller,5,7,99,55.0568181818184
Controller,5,7,100,55.1562500000002
Controller,5,7,101,55.255681818182
Controller,5,7,102,55.3551136363639
Controller,5,7,103,55.4545454545457
Controller,5,7,104,55.5610795454548
Controller,5,7,105,55.6605113636366
Controller,5,7,106,55.7599431818184
Controller,5,7,107,55.8593750000002
Controller,5,7,108,55.9659090909093
Controller,5,7,109,56.0653409090911
Controller,5,7,110,56.1647727272729
Controller,5,7,111,56.2642045454548
Controller,5,7,112,56.3636363636366
Controller,5,7,113,56.4701704545457
Controller,5,7,114,56.5696022727275
Controller,5,7,115,56.6690340909093
Controller,5,7,116,56.7684659090911
Controller,5,7,117,56.8750000000002
Controller,5,7,118,56.974431818182
Controller,5,7,119,57.0738636363638
Controller,5,7,120,57.1732954545456
Off,5,72,,57.2656250000002
Off,5,67,,57.2656250000002
Off,5,60,,57.2656250000002
Controller,5,7,74,57.2727272727275
On,5,68,45,57.2727272727275
On,5,63,45,57.2727272727275
On,5,56,45,57.2727272727275
Controller,5,7,75,57.3366477272729
Controller,5,7,76,57.3934659090911
Controller,5,7,77,57.4573863636366
Controller,5,7,78,57.5142045454547
Controller,5,7,79,57.5710227272729
Controller,5,7,80,57.6349431818184
Controller,5,7,81,57.6917613636366
Controller,5,7,82,57.7485795454547
Controller,5,7,83,57.8125000000002
Controller,5,7,84,57.8693181818184
Controller,5,7,85,57.9261363636366
Controller,5,7,86,57.990056818182
Controller,5,7,87,58.0468750000002
Controller,5,7,88,58.1036931818184
Controller,5,7,89,58.1676136363639
Controller,5,7,90,58.224431818182
Controller,5,7,91,58.2812500000002
Controller,5,7,92,58.3451704545457
Controller,5,7,93,58.4019886363639
Controller,5,7,94,58.458806818182
Controller,5,7,95,58.5227272727275
Controller,5,7,96,58.5795454545457
Controller,5,7,97,58.6363636363639
Controller,5,7,98,58.7002840909093
Controller,5,7,99,58.7571022727275
Controller,5,7,100,58.821022727273
Controller,5,7,101,58.8778409090911
Controller,5,7,102,58.9346590909093
Controller,5,7,103,58.9985795454548
Controller,5,7,104,59.055397727273
Controller,5,7,105,59.1122159090912
Controller,5,7,106,59.1761363636366
Controller,5,7,107,59.2329545454548
Controller,5,7,108,59.289772727273
Controller,5,7,109,59.3536931818184
Controller,5,7,110,59.4105113636366
Controller,5,7,111,59.4673295454548
Controller,5,7,112,59.5312500000003
Controller,5,7,113,59.5880681818184
Controller,5,7,114,59.6448863636366
Controller,5,7,115,59.7088068181821
Controller,5,7,116,59.7656250000003
Controller,5,7,117,59.8224431818184
Controller,5,7,118,59.8863636363639
Controller,5,7,119,59.9431818181821
Off,5,56,,59.992897727273
Off,5,63,,59.992897727273
Off,5,68,,59.992897727273
Controller,5,7,74,60.0000000000003
On,5,59,50,60.0000000000003
On,5,67,50,60.0000000000003
On,5,71,50,60.0000000000003
Controller,5,7,75,60.0639204545457
Controller,5,7,76,60.1278409090912
Controller,5,7,77,60.1917613636366
Controller,5,7,78,60.2485795454548
Controller,5,7,79,60.3125000000003
Controller,5,7,80,60.3764204545457
Controller,5,7,81,60.4403409090912
Controller,5,7,82,60.4971590909094
Controller,5,7,83,60.5610795454548
Controller,5,7,84,60.6250000000003
Controller,5,7,85,60.6818181818185
Controller,5,7,86,60.7457386363639
Controller,5,7,87,60.8096590909094
Controller,5,7,88,60.8735795454548
Controller,5,7,89,60.930397727273
Controller,5,7,90,60.9943181818185
Controller,5,7,91,61.0582386363639
Controller,5,7,92,61.1221590909094
Controller,5,7,93,61.1789772727276
Controller,5,7,94,61.242897727273
Controller,5,7,95,61.3068181818185
Controller,5,7,96,61.3636363636367
Controller,5,7,97,61.4275568181821
Controller,5,7,98,61.4914772727276
Controller,5,7,99,61.555397727273
Controller,5,7,100,61.6122159090912
Controller,5,7,101,61.6761363636367
Controller,5,7,102,61.7400568181821
Controller,5,7,103,61.8039772727276
Controller,5,7,104,61.8607954545458
Controller,5,7,105,61.9247159090912
Controller,5,7,106,61.9886363636367
Controller,5,7,107,62.0454545454549
Controller,5,7,108,62.1164772727276
Controller,5,7,109,62.1875000000003
Controller,5,7,110,62.2514204545458
Controller,5,7,111,62.3224431818185
Controller,5,7,112,62.386363636364
Controller,5,7,113,62.4573863636367
Controller,5,7,114,62.5284090909094
Controller,5,7,115,62.5923295454549
Controller,5,7,116,62.6633522727276
Off,5,71,,62.7201704545458
Off,5,67,,62.7201704545458
Off,5,59,,62.7201704545458
Controller,5,7,71,62.7272727272731
On,5,68,50,62.7272727272731
On,5,63,50,62.7272727272731
On,5,56,50,62.7272727272731
Controller,5,7,72,62.7627840909094
Controller,5,7,73,62.7911931818185
Controller,5,7,74,62.8267045454549
Controller,5,7,75,62.855113636364
Controller,5,7,76,62.883522727273
Controller,5,7,77,62.9190340909094
Controller,5,7,78,62.9474431818185
Controller,5,7,79,62.9758522727276
Controller,5,7,80,63.0113636363639
Controller,5,7,81,63.039772727273
Controller,5,7,82,63.0681818181821
Controller,5,7,83,63.1036931818185
Controller,5,7,84,63.1321022727276
Controller,5,7,85,63.1676136363639
Controller,5,7,86,63.196022727273
Controller,5,7,87,63.2244318181821
Controller,5,7,88,63.2599431818185
Controller,5,7,89,63.2883522727276
Controller,5,7,90,63.3167613636366
Controller,5,7,91,63.352272727273
Controller,5,7,92,63.3806818181821
Controller,5,7,93,63.4090909090912
Controller,5,7,94,63.4446022727275
Controller,5,7,95,63.4730113636366
Controller,5,7,96,63.508522727273
Controller,5,7,97,63.5369318181821
Controller,5,7,98,63.5653409090912
Controller,5,7,99,63.6008522727275
Controller,5,7,100,63.6292613636366
Controller,5,7,101,63.6576704545457
Controller,5,7,102,63.6931818181821
Controller,5,7,103,63.7215909090911
Controller,5,7,104,63.7500000000002
Controller,5,7,105,63.7855113636366
Controller,5,7,106,63.8139204545457
Controller,5,7,107,63.849431818182
Controller,5,7,108,63.8778409090911
Controller,5,7,109,63.9062500000002
Controller,5,7,110,63.9417613636366
Controller,5,7,111,63.9701704545457
Controller,5,7,112,63.9985795454548
Controller,5,7,113,64.0340909090911
Controller,5,7,114,64.0625000000002
Off,5,56,,64.083806818182
Off,5,63,,64.083806818182
Off,5,68,,64.083806818182
Controller,5,7,73,64.0909090909093
On,5,65,50,64.0909090909093
On,5,58,50,64.0909090909093
On,5,70,50,64.0909090909093
Controller,5,7,74,64.1335227272729
Controller,5,7,75,64.1761363636366
Controller,5,7,76,64.2116477272729
Controller,5,7,77,64.2542613636366
Controller,5,7,78,64.2968750000002
Controller,5,7,79,64.3323863636366
Controller,5,7,80,64.3750000000002
Controller,5,7,81,64.4176136363639
Controller,5,7,82,64.4531250000002
Controller,5,7,83,64.4957386363639
Controller,5,7,84,64.5383522727275
Controller,5,7,85,64.5738636363639
Controller,5,7,86,64.6164772727275
Controller,5,7,87,64.6590909090911
Controller,5,7,88,64.6946022727275
Controller,5,7,89,64.7372159090911
Controller,5,7,90,64.7727272727275
Controller,5,7,91,64.8153409090911
Controller,5,7,92,64.8579545454548
Controller,5,7,93,64.8934659090911
Controller,5,7,94,64.9360795454548
Controller,5,7,95,64.9786931818184
Controller,5,7,96,65.0142045454548
Controller,5,7,97,65.0568181818184
Controller,5,7,98,65.0994318181821
Controller,5,7,99,65.1349431818184
Controller,5,7,100,65.1775568181821
Controller,5,7,101,65.2201704545457
Controller,5,7,102,65.2556818181821
Controller,5,7,103,65.2982954545457
Controller,5,7,104,65.3409090909093
Controller,5,7,105,65.3764204545457
Controller,5,7,106,65.4190340909093
Off,5,70,,65.4474431818184
Off,5,58,,65.4474431818184
Off,5,65,,65.4474431818184
Controller,5,7,69,65.4545454545457
On,5,62,47,65.4545454545457
On,5,55,47,65.4545454545457
On,5,67,47,65.4545454545457
Controller,5,7,70,65.4971590909093
Controller,5,7,71,65.5326704545457
Controller,5,7,72,65.5681818181821
Controller,5,7,73,65.6036931818184
Controller,5,7,74,65.6392045454548
Controller,5,7,75,65.6747159090912
Controller,5,7,76,65.7102272727275
Controller,5,7,77,65.7457386363639
Controller,5,7,78,65.7812500000003
Controller,5,7,79,65.8167613636366
Controller,5,7,80,65.852272727273
Controller,5,7,81,65.8877840909094
Controller,5,7,82,65.9232954545457
Controller,5,7,83,65.9588068181821
Controller,5,7,84,65.9943181818185
Controller,5,7,85,66.0298295454548
Controller,5,7,86,66.0653409090912
Controller,5,7,87,66.1008522727276
Controller,5,7,88,66.1363636363639
Controller,5,7,89,66.1789772727276
Controller,5,7,90,66.2144886363639
Controller,5,7,91,66.2500000000003
Controller,5,7,92,66.2855113636367
Controller,5,7,93,66.321022727273
Controller,5,7,94,66.3565340909094
Controller,5,7,95,66.3920454545458
Controller,5,7,96,66.4275568181821
Controller,5,7,97,66.4630681818185
Controller,5,7,98,66.4985795454549
Controller,5,7,99,66.5340909090912
Controller,5,7,100,66.5696022727276
Controller,5,7,101,66.605113636364
Controller,5,7,102,66.6406250000004
Controller,5,7,103,66.6761363636367
Controller,5,7,104,66.7116477272731
Controller,5,7,105,66.7471590909094
Controller,5,7,106,66.7826704545458
Off,5,67,,66.8110795454549
Off,5,55,,66.8110795454549
Off,5,62,,66.8110795454549
Controller,5,7,70,66.8181818181822
On,5,62,36,66.8181818181822
On,5,55,36,66.8181818181822
On,5,67,36,66.8181818181822
Controller,5,7,71,66.8465909090913
Controller,5,7,72,66.8678977272731
Controller,5,7,73,66.8892045454549
Controller,5,7,74,66.917613636364
Controller,5,7,75,66.9389204545458
Controller,5,7,76,66.9602272727277
Controller,5,7,77,66.9886363636367
Controller,5,7,78,67.0099431818186
Controller,5,7,79,67.0312500000004
Controller,5,7,80,67.0596590909095
Controller,5,7,81,67.0809659090913
Controller,5,7,82,67.1022727272731
Controller,5,7,83,67.1306818181822
Controller,5,7,84,67.151988636364
Controller,5,7,85,67.1732954545459
Controller,5,7,86,67.1946022727277
Controller,5,7,87,67.2230113636368
Controller,5,7,88,67.2443181818186
Controller,5,7,89,67.2656250000004
Controller,5,7,90,67.2940340909095
Controller,5,7,91,67.3153409090913
Controller,5,7,92,67.3366477272732
Controller,5,7,93,67.3650568181822
Controller,5,7,94,67.3863636363641
Controller,5,7,95,67.4076704545459
Controller,5,7,96,67.436079545455
Controller,5,7,97,67.4573863636368
Controller,5,7,98,67.4786931818186
Controller,5,7,99,67.5000000000005
Controller,5,7,100,67.5284090909095
Controller,5,7,101,67.5497159090914
Controller,5,7,102,67.5710227272732
Controller,5,7,103,67.5994318181823
Controller,5,7,104,67.6207386363641
Controller,5,7,105,67.6420454545459
Controller,5,7,106,67.670454545455
Controller,5,7,107,67.6917613636368
Controller,5,7,108,67.7130681818187
Controller,5,7,109,67.7414772727277
Controller,5,7,110,67.7627840909096
Controller,5,7,111,67.7840909090914
Controller,5,7,112,67.8125000000005
Controller,5,7,113,67.8338068181823
Controller,5,7,114,67.8551136363641
Controller,5,7,115,67.876420454546
Controller,5,7,116,67.904829545455
Controller,5,7,117,67.9261363636369
Controller,5,7,118,67.9474431818187
Controller,5,7,119,67.9758522727278
Controller,5,7,120,67.9971590909096
Controller,5,7,121,68.0184659090914
Controller,5,7,122,68.0468750000005
Controller,5,7,123,68.0681818181823
Controller,5,7,124,68.0894886363642
Controller,5,7,125,68.1178977272732
Controller,5,7,126,68.1392045454551
Controller,5,7,127,68.1605113636369
Off,5,67,,68.1747159090914
Off,5,55,,68.1747159090914
Off,5,62,,68.1747159090914
Controller,5,7,127,68.1818181818187
On,5,63,55,68.1818181818187
On,5,51,55,68.1818181818187
On,5,67,55,68.1818181818187
Off,5,67,,70.9019886363642
Off,5,51,,70.9019886363642
Off,5,63,,70.9019886363642
On,5,67,54,70.9090909090914
On,5,62,54,70.9090909090914
On,5,55,54,70.9090909090914
Off,5,67,,73.6292613636369
Off,5,55,,73.6292613636369
Off,5,62,,73.6292613636369
On,5,63,54,73.6363636363642
On,5,51,54,73.6363636363642
On,5,60,54,73.6363636363642
On,5,67,54,73.6363636363642
Off,5,63,,76.3565340909096
Off,5,67,,76.3565340909096
Off,5,60,,76.3565340909096
Off,5,51,,76.3565340909096
On,5,62,54,76.3636363636369
On,5,58,54,76.3636363636369
On,5,53,54,76.3636363636369
On,5,65,54,76.3636363636369
Off,5,65,,79.0838068181824
Off,5,53,,79.0838068181824
Off,5,58,,79.0838068181824
Off,5,62,,79.0838068181824
On,5,58,54,79.0909090909097
On,5,67,54,79.0909090909097
On,5,70,54,79.0909090909097
Off,5,70,,81.8110795454551
Off,5,67,,81.8110795454551
Off,5,58,,81.8110795454551
On,5,57,54,81.8181818181824
On,5,69,54,81.8181818181824
On,5,65,54,81.8181818181824
Off,5,57,,84.5383522727278
Off,5,65,,84.5383522727278
Off,5,69,,84.5383522727278
On,5,55,54,84.5454545454551
On,5,67,54,84.5454545454551
On,5,63,54,84.5454545454551
Off,5,55,,87.2656250000006
Off,5,63,,87.2656250000006
Off,5,67,,87.2656250000006
On,5,53,53,87.2727272727279
On,5,62,53,87.2727272727279
On,5,65,53,87.2727272727279
Off,5,65,,89.9928977272733
Off,5,62,,89.9928977272733
Off,5,53,,89.9928977272733
On,5,63,36,95.454545454546
On,5,60,36,95.454545454546
On,5,67,36,95.454545454546
On,5,55,36,95.454545454546
Off,5,63,,100.901988636364
Off,5,60,,100.901988636364
Off,5,67,,100.901988636364
Off,5,55,,100.901988636364
On,5,53,34,100.909090909091
On,5,58,34,100.909090909091
On,5,62,34,100.909090909091
On,5,65,34,100.909090909091
Off,5,53,,106.35653409091
Off,5,65,,106.35653409091
Off,5,62,,106.35653409091
Off,5,58,,106.35653409091
On,5,63,36,106.363636363637
On,5,60,36,106.363636363637
On,5,67,36,106.363636363637
On,5,55,36,106.363636363637
Off,5,55,,111.811079545455
Off,5,67,,111.811079545455
Off,5,60,,111.811079545455
Off,5,63,,111.811079545455
On,5,53,34,111.818181818182
On,5,58,34,111.818181818182
On,5,62,34,111.818181818182
On,5,65,34,111.818181818182
Off,5,65,,117.265625000001
Off,5,62,,117.265625000001
Off,5,58,,117.265625000001
Off,5,53,,117.265625000001
Controller,5,7,67,117.272727272728
On,5,56,56,117.272727272728
On,5,63,56,117.272727272728
On,5,68,56,117.272727272728
Controller,5,7,68,117.329545454546
Controller,5,7,69,117.379261363637
Controller,5,7,70,117.428977272728
Controller,5,7,71,117.478693181819
Controller,5,7,72,117.535511363637
Controller,5,7,73,117.585227272728
Controller,5,7,74,117.634943181819
Controller,5,7,75,117.68465909091
Controller,5,7,76,117.741477272728
Controller,5,7,77,117.791193181819
Controller,5,7,78,117.84090909091
Controller,5,7,79,117.890625000001
Controller,5,7,80,117.947443181819
Controller,5,7,81,117.99715909091
Controller,5,7,82,118.046875000001
Controller,5,7,83,118.096590909092
Controller,5,7,84,118.15340909091
Controller,5,7,85,118.203125000001
Controller,5,7,86,118.252840909092
Controller,5,7,87,118.302556818182
Controller,5,7,88,118.359375000001
Controller,5,7,89,118.409090909092
Controller,5,7,90,118.458806818182
Controller,5,7,91,118.508522727273
Controller,5,7,92,118.565340909092
Controller,5,7,93,118.615056818182
Controller,5,7,94,118.664772727273
Controller,5,7,95,118.714488636364
Controller,5,7,96,118.771306818182
Controller,5,7,97,118.821022727273
Controller,5,7,98,118.870738636364
Controller,5,7,99,118.920454545455
Controller,5,7,100,118.977272727273
Controller,5,7,101,119.026988636364
Controller,5,7,102,119.076704545455
Controller,5,7,103,119.126420454546
Controller,5,7,104,119.183238636364
Controller,5,7,105,119.232954545455
Controller,5,7,106,119.282670454546
Controller,5,7,107,119.332386363637
Controller,5,7,108,119.389204545455
Controller,5,7,109,119.438920454546
Controller,5,7,110,119.488636363637
Controller,5,7,111,119.538352272728
Controller,5,7,112,119.595170454546
Controller,5,7,113,119.644886363637
Controller,5,7,114,119.694602272728
Controller,5,7,115,119.744318181819
Controller,5,7,116,119.801136363637
Controller,5,7,117,119.850852272728
Controller,5,7,118,119.900568181819
Controller,5,7,119,119.95028409091
Off,5,56,,119.992897727273
Off,5,63,,119.992897727273
Off,5,68,,119.992897727273
Controller,5,7,61,120.000000000001
On,5,67,50,120.000000000001
On,5,62,50,120.000000000001
On,5,55,50,120.000000000001
Controller,5,7,62,120.063920454546
Controller,5,7,63,120.127840909092
Controller,5,7,64,120.191761363637
Controller,5,7,65,120.248579545455
Controller,5,7,66,120.312500000001
Controller,5,7,67,120.376420454546
Controller,5,7,68,120.440340909092
Controller,5,7,69,120.49715909091
Controller,5,7,70,120.561079545455
Controller,5,7,71,120.625000000001
Controller,5,7,72,120.681818181819
Controller,5,7,73,120.745738636364
Controller,5,7,74,120.80965909091
Controller,5,7,75,120.873579545455
Controller,5,7,76,120.930397727273
Controller,5,7,77,120.994318181819
Controller,5,7,78,121.058238636364
Controller,5,7,79,121.12215909091
Controller,5,7,80,121.178977272728
Controller,5,7,81,121.242897727273
Controller,5,7,82,121.306818181819
Controller,5,7,83,121.363636363637
Controller,5,7,84,121.427556818182
Controller,5,7,85,121.491477272728
Controller,5,7,86,121.555397727273
Controller,5,7,87,121.612215909092
Controller,5,7,88,121.676136363637
Controller,5,7,89,121.740056818182
Controller,5,7,90,121.803977272728
Controller,5,7,91,121.860795454546
Controller,5,7,92,121.924715909092
Controller,5,7,93,121.988636363637
Controller,5,7,94,122.045454545455
Controller,5,7,95,122.109375000001
Controller,5,7,96,122.173295454546
Controller,5,7,97,122.237215909092
Controller,5,7,98,122.29403409091
Controller,5,7,99,122.357954545455
Controller,5,7,100,122.421875000001
Controller,5,7,101,122.485795454546
Controller,5,7,102,122.542613636364
Controller,5,7,103,122.60653409091
Controller,5,7,104,122.670454545455
Off,5,55,,122.720170454546
Off,5,62,,122.720170454546
Off,5,67,,122.720170454546
Controller,5,7,63,122.727272727273
On,5,60,46,122.727272727273
On,5,67,46,122.727272727273
On,5,72,46,122.727272727273
Controller,5,7,64,122.784090909092
Controller,5,7,65,122.833806818182
Controller,5,7,66,122.890625000001
Controller,5,7,67,122.940340909092
Controller,5,7,68,122.990056818182
Controller,5,7,69,123.046875000001
Controller,5,7,70,123.096590909092
Controller,5,7,71,123.15340909091
Controller,5,7,72,123.203125000001
Controller,5,7,73,123.252840909092
Controller,5,7,74,123.30965909091
Controller,5,7,75,123.359375000001
Controller,5,7,76,123.409090909092
Controller,5,7,77,123.46590909091
Controller,5,7,78,123.515625000001
Controller,5,7,79,123.572443181819
Controller,5,7,80,123.62215909091
Controller,5,7,81,123.671875000001
Controller,5,7,82,123.728693181819
Controller,5,7,83,123.77840909091
Controller,5,7,84,123.835227272728
Controller,5,7,85,123.884943181819
Controller,5,7,86,123.93465909091
Controller,5,7,87,123.991477272728
Controller,5,7,88,124.041193181819
Controller,5,7,89,124.09090909091
Controller,5,7,90,124.147727272728
Controller,5,7,91,124.197443181819
Controller,5,7,92,124.254261363637
Controller,5,7,93,124.303977272728
Controller,5,7,94,124.353693181819
Controller,5,7,95,124.410511363637
Controller,5,7,96,124.460227272728
Controller,5,7,97,124.517045454546
Controller,5,7,98,124.566761363637
Controller,5,7,99,124.616477272728
Controller,5,7,100,124.673295454546
Controller,5,7,101,124.723011363637
Controller,5,7,102,124.772727272728
Controller,5,7,103,124.829545454546
Controller,5,7,104,124.879261363637
Controller,5,7,105,124.936079545455
Controller,5,7,106,124.985795454546
Controller,5,7,107,125.035511363637
Controller,5,7,108,125.092329545455
Controller,5,7,109,125.142045454546
Controller,5,7,110,125.198863636364
Controller,5,7,111,125.248579545455
Controller,5,7,112,125.298295454546
Controller,5,7,113,125.355113636364
Controller,5,7,114,125.404829545455
Off,5,67,,125.447443181819
Off,5,60,,125.447443181819
Off,5,72,,125.447443181819
Controller,5,7,79,125.454545454546
On,5,72,45,125.454545454546
On,5,67,45,125.454545454546
On,5,60,45,125.454545454546
Controller,5,7,80,125.518465909092
Controller,5,7,81,125.582386363637
Controller,5,7,82,125.646306818182
Controller,5,7,83,125.703125000001
Controller,5,7,84,125.767045454546
Controller,5,7,85,125.830965909092
Controller,5,7,86,125.894886363637
Controller,5,7,87,125.951704545455
Controller,5,7,88,126.015625000001
Controller,5,7,89,126.079545454546
Controller,5,7,90,126.136363636364
Controller,5,7,91,126.20028409091
Controller,5,7,92,126.264204545455
Controller,5,7,93,126.328125000001
Controller,5,7,94,126.384943181819
Controller,5,7,95,126.448863636364
Controller,5,7,96,126.51278409091
Controller,5,7,97,126.576704545455
Controller,5,7,98,126.633522727273
Controller,5,7,99,126.697443181819
Controller,5,7,100,126.761363636364
Controller,5,7,101,126.818181818182
Controller,5,7,102,126.882102272728
Controller,5,7,103,126.946022727273
Controller,5,7,104,127.009943181819
Controller,5,7,105,127.066761363637
Controller,5,7,106,127.130681818182
Controller,5,7,107,127.194602272728
Controller,5,7,108,127.258522727273
Controller,5,7,109,127.315340909091
Controller,5,7,110,127.379261363637
Controller,5,7,111,127.443181818182
Controller,5,7,112,127.500000000001
Controller,5,7,113,127.563920454546
Controller,5,7,114,127.627840909091
Controller,5,7,115,127.691761363637
Controller,5,7,116,127.748579545455
Controller,5,7,117,127.812500000001
Controller,5,7,118,127.876420454546
Controller,5,7,119,127.940340909091
Controller,5,7,120,127.99715909091
Controller,5,7,121,128.061079545455
Controller,5,7,122,128.125000000001
Off,5,72,,128.174715909092
Off,5,67,,128.174715909092
Off,5,60,,128.174715909092
Controller,5,7,62,128.181818181819
On,5,68,45,128.181818181819
On,5,63,45,128.181818181819
On,5,56,45,128.181818181819
Controller,5,7,63,128.23153409091
Controller,5,7,64,128.281250000001
Controller,5,7,65,128.330965909092
Controller,5,7,66,128.380681818182
Controller,5,7,67,128.430397727273
Controller,5,7,68,128.480113636364
Controller,5,7,69,128.522727272728
Controller,5,7,70,128.572443181819
Controller,5,7,71,128.62215909091
Controller,5,7,72,128.671875000001
Controller,5,7,73,128.721590909092
Controller,5,7,74,128.771306818182
Controller,5,7,75,128.821022727273
Controller,5,7,76,128.863636363637
Controller,5,7,77,128.913352272728
Controller,5,7,78,128.963068181819
Controller,5,7,79,129.01278409091
Controller,5,7,80,129.062500000001
Controller,5,7,81,129.112215909092
Controller,5,7,82,129.161931818182
Controller,5,7,83,129.204545454546
Controller,5,7,84,129.254261363637
Controller,5,7,85,129.303977272728
Controller,5,7,86,129.353693181819
Controller,5,7,87,129.40340909091
Controller,5,7,88,129.453125000001
Controller,5,7,89,129.502840909092
Controller,5,7,90,129.545454545455
Controller,5,7,91,129.595170454546
Controller,5,7,92,129.644886363637
Controller,5,7,93,129.694602272728
Controller,5,7,94,129.744318181819
Controller,5,7,95,129.79403409091
Controller,5,7,96,129.843750000001
Controller,5,7,97,129.886363636364
Controller,5,7,98,129.936079545455
Controller,5,7,99,129.985795454546
Controller,5,7,100,130.035511363637
Controller,5,7,101,130.085227272728
Controller,5,7,102,130.134943181819
Controller,5,7,103,130.18465909091
Controller,5,7,104,130.227272727273
Controller,5,7,105,130.276988636364
Controller,5,7,106,130.326704545455
Controller,5,7,107,130.376420454546
Controller,5,7,108,130.426136363637
Controller,5,7,109,130.475852272728
Controller,5,7,110,130.525568181819
Controller,5,7,111,130.568181818183
Controller,5,7,112,130.617897727273
Controller,5,7,113,130.667613636364
Controller,5,7,114,130.717329545455
Controller,5,7,115,130.767045454546
Controller,5,7,116,130.816761363637
Controller,5,7,117,130.866477272728
Off,5,56,,130.901988636364
Off,5,63,,130.901988636364
Off,5,68,,130.901988636364
Controller,5,7,68,130.909090909092
On,5,59,50,130.909090909092
On,5,67,50,130.909090909092
On,5,71,50,130.909090909092
Controller,5,7,69,130.96590909091
Controller,5,7,70,131.022727272728
Controller,5,7,71,131.079545454546
Controller,5,7,72,131.136363636364
Controller,5,7,73,131.193181818183
Controller,5,7,74,131.250000000001
Controller,5,7,75,131.299715909092
Controller,5,7,76,131.35653409091
Controller,5,7,77,131.413352272728
Controller,5,7,78,131.470170454546
Controller,5,7,79,131.526988636364
Controller,5,7,80,131.583806818182
Controller,5,7,81,131.633522727273
Controller,5,7,82,131.690340909092
Controller,5,7,83,131.74715909091
Controller,5,7,84,131.803977272728
Controller,5,7,85,131.860795454546
Controller,5,7,86,131.917613636364
Controller,5,7,87,131.967329545455
Controller,5,7,88,132.024147727273
Controller,5,7,89,132.080965909092
Controller,5,7,90,132.13778409091
Controller,5,7,91,132.194602272728
Controller,5,7,92,132.251420454546
Controller,5,7,93,132.301136363637
Controller,5,7,94,132.357954545455
Controller,5,7,95,132.414772727273
Controller,5,7,96,132.471590909092
Controller,5,7,97,132.52840909091
Controller,5,7,98,132.585227272728
Controller,5,7,99,132.634943181819
Controller,5,7,100,132.691761363637
Controller,5,7,101,132.748579545455
Controller,5,7,102,132.805397727273
Controller,5,7,103,132.862215909091
Controller,5,7,104,132.91903409091
Controller,5,7,105,132.968750000001
Controller,5,7,106,133.025568181819
Controller,5,7,107,133.082386363637
Controller,5,7,108,133.139204545455
Controller,5,7,109,133.196022727273
Controller,5,7,110,133.252840909091
Controller,5,7,111,133.302556818182
Controller,5,7,112,133.359375000001
Controller,5,7,113,133.416193181819
Controller,5,7,114,133.473011363637
Controller,5,7,115,133.529829545455
Controller,5,7,116,133.586647727273
Off,5,71,,133.629261363637
Off,5,67,,133.629261363637
Off,5,59,,133.629261363637
Controller,5,7,68,133.636363636364
On,5,68,50,133.636363636364
On,5,63,50,133.636363636364
On,5,56,50,133.636363636364
Controller,5,7,69,133.664772727273
Controller,5,7,70,133.693181818182
Controller,5,7,71,133.721590909091
Controller,5,7,72,133.75
Controller,5,7,73,133.771306818182
Controller,5,7,74,133.799715909091
Controller,5,7,75,133.828125
Controller,5,7,76,133.85653409091
Controller,5,7,77,133.877840909091
Controller,5,7,78,133.90625
Controller,5,7,79,133.93465909091
Controller,5,7,80,133.963068181819
Controller,5,7,81,133.984375
Controller,5,7,82,134.01278409091
Controller,5,7,83,134.041193181819
Controller,5,7,84,134.069602272728
Controller,5,7,85,134.09090909091
Controller,5,7,86,134.119318181819
Controller,5,7,87,134.147727272728
Controller,5,7,88,134.176136363637
Controller,5,7,89,134.204545454546
Controller,5,7,90,134.225852272728
Controller,5,7,91,134.254261363637
Controller,5,7,92,134.282670454546
Controller,5,7,93,134.311079545455
Controller,5,7,94,134.332386363637
Controller,5,7,95,134.360795454546
Controller,5,7,96,134.389204545455
Controller,5,7,97,134.417613636364
Controller,5,7,98,134.438920454546
Controller,5,7,99,134.467329545455
Controller,5,7,100,134.495738636364
Controller,5,7,101,134.524147727273
Controller,5,7,102,134.545454545455
Controller,5,7,103,134.573863636364
Controller,5,7,104,134.602272727273
Controller,5,7,105,134.630681818182
Controller,5,7,106,134.659090909091
Controller,5,7,107,134.680397727273
Controller,5,7,108,134.708806818182
Controller,5,7,109,134.737215909091
Controller,5,7,110,134.765625
Controller,5,7,111,134.786931818182
Controller,5,7,112,134.815340909091
Controller,5,7,113,134.84375
Controller,5,7,114,134.87215909091
Controller,5,7,115,134.893465909091
Controller,5,7,116,134.921875
Controller,5,7,117,134.95028409091
Controller,5,7,118,134.978693181819
Off,5,56,,134.992897727273
Off,5,63,,134.992897727273
Off,5,68,,134.992897727273
Controller,5,7,71,135
On,5,65,50,135
On,5,58,50,135
On,5,70,50,135
Controller,5,7,72,135.02840909091
Controller,5,7,73,135.056818181819
Controller,5,7,74,135.085227272728
Controller,5,7,75,135.113636363637
Controller,5,7,76,135.142045454546
Controller,5,7,77,135.170454545455
Controller,5,7,78,135.191761363637
Controller,5,7,79,135.220170454546
Controller,5,7,80,135.248579545455
Controller,5,7,81,135.276988636364
Controller,5,7,82,135.305397727273
Controller,5,7,83,135.333806818182
Controller,5,7,84,135.355113636364
Controller,5,7,85,135.383522727273
Controller,5,7,86,135.411931818182
Controller,5,7,87,135.440340909091
Controller,5,7,88,135.46875
Controller,5,7,89,135.49715909091
Controller,5,7,90,135.518465909091
Controller,5,7,91,135.546875
Controller,5,7,92,135.57528409091
Controller,5,7,93,135.603693181819
Controller,5,7,94,135.632102272728
Controller,5,7,95,135.660511363637
Controller,5,7,96,135.681818181819
Controller,5,7,97,135.710227272728
Controller,5,7,98,135.738636363637
Controller,5,7,99,135.767045454546
Controller,5,7,100,135.795454545455
Controller,5,7,101,135.823863636364
Controller,5,7,102,135.852272727273
Controller,5,7,103,135.873579545455
Controller,5,7,104,135.901988636364
Controller,5,7,105,135.930397727273
Controller,5,7,106,135.958806818182
Controller,5,7,107,135.987215909091
Controller,5,7,108,136.015625
Controller,5,7,109,136.036931818182
Controller,5,7,110,136.065340909091
Controller,5,7,111,136.09375
Controller,5,7,112,136.122159090909
Controller,5,7,113,136.150568181819
Controller,5,7,114,136.178977272728
Controller,5,7,115,136.200284090909
Controller,5,7,116,136.228693181819
Controller,5,7,117,136.257102272728
Controller,5,7,118,136.285511363637
Controller,5,7,119,136.313920454546
Controller,5,7,120,136.342329545455
Off,5,70,,136.356534090909
Off,5,58,,136.356534090909
Off,5,65,,136.356534090909
Controller,5,7,68,136.363636363637
On,5,67,47,136.363636363637
On,5,55,47,136.363636363637
On,5,62,47,136.363636363637
Controller,5,7,69,136.392045454546
Controller,5,7,70,136.420454545455
Controller,5,7,71,136.448863636364
Controller,5,7,72,136.470170454546
Controller,5,7,73,136.498579545455
Controller,5,7,74,136.526988636364
Controller,5,7,75,136.548295454546
Controller,5,7,76,136.576704545455
Controller,5,7,77,136.605113636364
Controller,5,7,78,136.626420454546
Controller,5,7,79,136.654829545455
Controller,5,7,80,136.683238636364
Controller,5,7,81,136.704545454546
Controller,5,7,82,136.732954545455
Controller,5,7,83,136.761363636364
Controller,5,7,84,136.789772727273
Controller,5,7,85,136.811079545455
Controller,5,7,86,136.839488636364
Controller,5,7,87,136.867897727273
Controller,5,7,88,136.889204545455
Controller,5,7,89,136.917613636364
Controller,5,7,90,136.946022727273
Controller,5,7,91,136.967329545455
Controller,5,7,92,136.995738636364
Controller,5,7,93,137.024147727273
Controller,5,7,94,137.045454545455
Controller,5,7,95,137.073863636364
Controller,5,7,96,137.102272727273
Controller,5,7,97,137.130681818182
Controller,5,7,98,137.151988636364
Controller,5,7,99,137.180397727273
Controller,5,7,100,137.208806818182
Controller,5,7,101,137.230113636364
Controller,5,7,102,137.258522727273
Controller,5,7,103,137.286931818182
Controller,5,7,104,137.308238636364
Controller,5,7,105,137.336647727273
Controller,5,7,106,137.365056818182
Controller,5,7,107,137.386363636364
Controller,5,7,108,137.414772727273
Controller,5,7,109,137.443181818182
Controller,5,7,110,137.471590909091
Controller,5,7,111,137.492897727273
Controller,5,7,112,137.521306818182
Controller,5,7,113,137.549715909091
Controller,5,7,114,137.571022727273
Controller,5,7,115,137.599431818182
Controller,5,7,116,137.627840909091
Controller,5,7,117,137.649147727273
Controller,5,7,118,137.677556818182
Controller,5,7,119,137.705965909091
Off,5,62,,137.720170454546
Off,5,55,,137.720170454546
Off,5,67,,137.720170454546
Controller,5,7,120,137.727272727273
On,5,67,36,137.727272727273
On,5,55,36,137.727272727273
On,5,62,36,137.727272727273
Controller,5,7,55,137.748579545455
Controller,5,7,56,137.769886363637
Controller,5,7,57,137.784090909091
Controller,5,7,58,137.805397727273
Controller,5,7,59,137.819602272728
Controller,5,7,60,137.84090909091
Controller,5,7,61,137.862215909091
Controller,5,7,62,137.876420454546
Controller,5,7,63,137.897727272728
Controller,5,7,64,137.911931818182
Controller,5,7,65,137.933238636364
Controller,5,7,66,137.954545454546
Controller,5,7,67,137.96875
Controller,5,7,68,137.990056818182
Controller,5,7,69,138.004261363637
Controller,5,7,70,138.025568181819
Controller,5,7,71,138.046875000001
Controller,5,7,72,138.061079545455
Controller,5,7,73,138.082386363637
Controller,5,7,74,138.096590909091
Controller,5,7,75,138.117897727273
Controller,5,7,76,138.139204545455
Controller,5,7,77,138.15340909091
Controller,5,7,78,138.174715909092
Controller,5,7,79,138.188920454546
Controller,5,7,80,138.210227272728
Controller,5,7,81,138.23153409091
Controller,5,7,82,138.245738636364
Controller,5,7,83,138.267045454546
Controller,5,7,84,138.281250000001
Controller,5,7,85,138.302556818182
Controller,5,7,86,138.323863636364
Controller,5,7,87,138.338068181819
Controller,5,7,88,138.359375000001
Controller,5,7,89,138.373579545455
Controller,5,7,90,138.394886363637
Controller,5,7,91,138.409090909092
Controller,5,7,92,138.430397727273
Controller,5,7,93,138.451704545455
Controller,5,7,94,138.46590909091
Controller,5,7,95,138.487215909092
Controller,5,7,96,138.501420454546
Controller,5,7,97,138.522727272728
Controller,5,7,98,138.54403409091
Controller,5,7,99,138.558238636364
Controller,5,7,100,138.579545454546
Controller,5,7,101,138.593750000001
Controller,5,7,102,138.615056818183
Controller,5,7,103,138.636363636364
Controller,5,7,104,138.650568181819
Controller,5,7,105,138.671875000001
Controller,5,7,106,138.686079545455
Controller,5,7,107,138.707386363637
Controller,5,7,108,138.728693181819
Controller,5,7,109,138.742897727274
Controller,5,7,110,138.764204545455
Controller,5,7,111,138.77840909091
Controller,5,7,112,138.799715909092
Controller,5,7,113,138.821022727274
Controller,5,7,114,138.835227272728
Controller,5,7,115,138.85653409091
Controller,5,7,116,138.870738636365
Controller,5,7,117,138.892045454546
Controller,5,7,118,138.913352272728
Controller,5,7,119,138.927556818183
Controller,5,7,120,138.948863636365
Controller,5,7,121,138.963068181819
Controller,5,7,122,138.984375000001
Controller,5,7,123,139.005681818183
Controller,5,7,124,139.019886363637
Controller,5,7,125,139.041193181819
Controller,5,7,126,139.055397727274
Controller,5,7,127,139.076704545456
Off,5,67,,139.083806818183
Off,5,62,,139.083806818183
Off,5,55,,139.083806818183
Controller,5,7,127,139.09090909091
On,5,67,55,139.09090909091
On,5,51,55,139.09090909091
On,5,63,55,139.09090909091
Off,5,63,,141.811079545456
Off,5,51,,141.811079545456
Off,5,67,,141.811079545456
On,5,67,54,141.818181818183
On,5,62,54,141.818181818183
On,5,55,54,141.818181818183
Off,5,67,,144.538352272728
Off,5,55,,144.538352272728
Off,5,62,,144.538352272728
On,5,63,54,144.545454545456
On,5,51,54,144.545454545456
On,5,60,54,144.545454545456
On,5,67,54,144.545454545456
Off,5,63,,147.265625000001
Off,5,67,,147.265625000001
Off,5,60,,147.265625000001
Off,5,51,,147.265625000001
On,5,65,54,147.272727272728
On,5,53,54,147.272727272728
On,5,58,54,147.272727272728
On,5,62,54,147.272727272728
Off,5,62,,149.992897727274
Off,5,58,,149.992897727274
Off,5,53,,149.992897727274
Off,5,65,,149.992897727274
On,5,58,54,150.000000000001
On,5,67,54,150.000000000001
On,5,70,54,150.000000000001
Off,5,70,,152.720170454546
Off,5,67,,152.720170454546
Off,5,58,,152.720170454546
On,5,57,54,152.727272727274
On,5,69,54,152.727272727274
On,5,65,54,152.727272727274
Off,5,57,,155.447443181819
Off,5,65,,155.447443181819
Off,5,69,,155.447443181819
On,5,55,54,155.454545454546
On,5,67,54,155.454545454546
On,5,63,54,155.454545454546
Off,5,55,,158.174715909092
Off,5,63,,158.174715909092
Off,5,67,,158.174715909092
On,5,53,53,158.181818181819
On,5,62,53,158.181818181819
On,5,65,53,158.181818181819
Off,5,65,,160.901988636364
Off,5,62,,160.901988636364
Off,5,53,,160.901988636364
On,5,67,55,160.909090909092
On,5,51,55,160.909090909092
On,5,63,55,160.909090909092
Off,5,51,,163.629261363637
Off,5,67,,163.629261363637
Off,5,63,,163.629261363637
On,5,67,54,163.636363636364
On,5,62,54,163.636363636364
On,5,55,54,163.636363636364
Off,5,67,,166.35653409091
Off,5,62,,166.35653409091
Off,5,55,,166.35653409091
On,5,63,54,166.363636363637
On,5,51,54,166.363636363637
On,5,60,54,166.363636363637
On,5,67,54,166.363636363637
Off,5,63,,169.083806818183
Off,5,60,,169.083806818183
Off,5,51,,169.083806818183
Off,5,67,,169.083806818183
On,5,65,54,169.09090909091
On,5,53,54,169.09090909091
On,5,58,54,169.09090909091
On,5,62,54,169.09090909091
Off,5,53,,171.811079545455
Off,5,65,,171.811079545455
Off,5,58,,171.811079545455
Off,5,62,,171.811079545455
On,5,58,54,171.818181818183
On,5,67,54,171.818181818183
On,5,70,54,171.818181818183
Off,5,70,,174.538352272728
Off,5,67,,174.538352272728
Off,5,58,,174.538352272728
On,5,57,54,174.545454545455
On,5,69,54,174.545454545455
On,5,65,54,174.545454545455
Off,5,65,,177.265625000001
Off,5,69,,177.265625000001
Off,5,57,,177.265625000001
On,5,55,54,177.272727272728
On,5,67,54,177.272727272728
On,5,63,54,177.272727272728
Off,5,55,,179.992897727273
Off,5,67,,179.992897727273
Off,5,63,,179.992897727273
On,5,53,53,180.000000000001
On,5,62,53,180.000000000001
On,5,65,53,180.000000000001
Off,5,53,,182.720170454546
Off,5,62,,182.720170454546
Off,5,65,,182.720170454546
On,5,67,55,182.727272727273
On,5,51,55,182.727272727273
On,5,63,55,182.727272727273
Off,5,63,,185.447443181819
Off,5,51,,185.447443181819
Off,5,67,,185.447443181819
On,5,67,54,185.454545454546
On,5,62,54,185.454545454546
On,5,55,54,185.454545454546
Off,5,67,,188.174715909092
Off,5,55,,188.174715909092
Off,5,62,,188.174715909092
On,5,63,54,188.181818181819
On,5,51,54,188.181818181819
On,5,60,54,188.181818181819
On,5,67,54,188.181818181819
Off,5,63,,190.901988636364
Off,5,67,,190.901988636364
Off,5,60,,190.901988636364
Off,5,51,,190.901988636364
On,5,65,54,190.909090909092
On,5,53,54,190.909090909092
On,5,58,54,190.909090909092
On,5,62,54,190.909090909092
Off,5,62,,193.629261363637
Off,5,58,,193.629261363637
Off,5,53,,193.629261363637
Off,5,65,,193.629261363637
On,5,58,54,193.636363636364
On,5,67,54,193.636363636364
On,5,70,54,193.636363636364
Off,5,70,,196.35653409091
Off,5,67,,196.35653409091
Off,5,58,,196.35653409091
On,5,57,54,196.363636363637
On,5,69,54,196.363636363637
On,5,65,54,196.363636363637
Off,5,57,,199.083806818182
Off,5,65,,199.083806818182
Off,5,69,,199.083806818182
On,5,55,54,199.09090909091
On,5,67,54,199.09090909091
On,5,63,54,199.09090909091
Off,5,55,,201.811079545455
Off,5,63,,201.811079545455
Off,5,67,,201.811079545455
On,5,53,53,201.818181818182
On,5,62,53,201.818181818182
On,5,65,53,201.818181818182
Off,5,65,,204.538352272728
Off,5,62,,204.538352272728
Off,5,53,,204.538352272728
On,5,67,55,204.545454545455
On,5,51,55,204.545454545455
On,5,63,55,204.545454545455
Off,5,67,,207.265625
Off,5,63,,207.265625
Off,5,51,,207.265625
On,5,67,54,207.272727272728
On,5,62,54,207.272727272728
On,5,55,54,207.272727272728
Off,5,67,,209.992897727273
Off,5,55,,209.992897727273
Off,5,62,,209.992897727273
On,5,63,54,210
On,5,51,54,210
On,5,60,54,210
On,5,67,54,210
Off,5,51,,212.720170454546
Off,5,67,,212.720170454546
Off,5,60,,212.720170454546
Off,5,63,,212.720170454546
On,5,65,54,212.727272727273
On,5,53,54,212.727272727273
On,5,58,54,212.727272727273
On,5,62,54,212.727272727273
Off,5,65,,215.447443181819
Off,5,62,,215.447443181819
Off,5,58,,215.447443181819
Off,5,53,,215.447443181819
On,5,58,54,215.454545454546
On,5,67,54,215.454545454546
On,5,70,54,215.454545454546
Off,5,58,,218.174715909091
Off,5,70,,218.174715909091
Off,5,67,,218.174715909091
On,5,57,54,218.181818181819
On,5,69,54,218.181818181819
On,5,65,54,218.181818181819
Off,5,69,,220.901988636364
Off,5,57,,220.901988636364
Off,5,65,,220.901988636364
On,5,55,54,220.909090909091
On,5,67,54,220.909090909091
On,5,63,54,220.909090909091
Off,5,55,,223.629261363637
Off,5,67,,223.629261363637
Off,5,63,,223.629261363637
On,5,53,53,223.636363636364
On,5,62,53,223.636363636364
On,5,65,53,223.636363636364
Off,5,53,,226.356534090909
Off,5,65,,226.356534090909
Off,5,62,,226.356534090909
On,5,67,55,226.363636363637
On,5,51,55,226.363636363637
On,5,63,55,226.363636363637
Off,5,63,,229.083806818182
Off,5,67,,229.083806818182
Off,5,51,,229.083806818182
On,5,55,54,229.090909090909
On,5,62,54,229.090909090909
On,5,67,54,229.090909090909
Off,5,67,,231.811079545455
Off,5,62,,231.811079545455
Off,5,55,,231.811079545455
On,5,63,54,231.818181818182
On,5,51,54,231.818181818182
On,5,60,54,231.818181818182
On,5,67,54,231.818181818182
Off,5,51,,234.538352272728
Off,5,67,,234.538352272728
Off,5,60,,234.538352272728
Off,5,63,,234.538352272728
On,5,65,54,234.545454545455
On,5,53,54,234.545454545455
On,5,58,54,234.545454545455
On,5,62,54,234.545454545455
Off,5,65,,237.265625
Off,5,62,,237.265625
Off,5,58,,237.265625
Off,5,53,,237.265625
On,5,58,54,237.272727272728
On,5,67,54,237.272727272728
On,5,70,54,237.272727272728
Off,5,67,,239.992897727273
Off,5,58,,239.992897727273
Off,5,70,,239.992897727273
On,5,57,54,240
On,5,69,54,240
On,5,65,54,240
Off,5,57,,242.720170454546
Off,5,65,,242.720170454546
Off,5,69,,242.720170454546
On,5,55,54,242.727272727273
On,5,67,54,242.727272727273
On,5,63,54,242.727272727273
Off,5,55,,245.447443181818
Off,5,67,,245.447443181818
Off,5,63,,245.447443181818
On,5,53,53,245.454545454546
On,5,62,53,245.454545454546
On,5,65,53,245.454545454546
Off,5,53,,248.174715909091
Off,5,65,,248.174715909091
Off,5,62,,248.174715909091
On,5,67,55,248.181818181818
On,5,51,55,248.181818181818
On,5,63,55,248.181818181818
Off,5,63,,250.901988636364
Off,5,51,,250.901988636364
Off,5,67,,250.901988636364
On,5,67,54,250.909090909091
On,5,62,54,250.909090909091
On,5,55,54,250.909090909091
Off,5,55,,253.629261363636
Off,5,62,,253.629261363636
Off,5,67,,253.629261363636
On,5,63,54,253.636363636364
On,5,51,54,253.636363636364
On,5,60,54,253.636363636364
On,5,67,54,253.636363636364
Off,5,67,,256.356534090909
Off,5,60,,256.356534090909
Off,5,51,,256.356534090909
Off,5,63,,256.356534090909
On,5,65,54,256.363636363636
On,5,53,54,256.363636363636
On,5,58,54,256.363636363636
On,5,62,54,256.363636363636
Off,5,65,,259.083806818182
Off,5,62,,259.083806818182
Off,5,58,,259.083806818182
Off,5,53,,259.083806818182
On,5,58,54,259.090909090909
On,5,67,54,259.090909090909
On,5,70,54,259.090909090909
Off,5,70,,261.811079545455
Off,5,67,,261.811079545455
Off,5,58,,261.811079545455
On,5,57,54,261.818181818182
On,5,69,54,261.818181818182
On,5,65,54,261.818181818182
Off,5,65,,264.538352272727
Off,5,69,,264.538352272727
Off,5,57,,264.538352272727
On,5,55,54,264.545454545455
On,5,67,54,264.545454545455
On,5,63,54,264.545454545455
Off,5,63,,267.265625
Off,5,67,,267.265625
Off,5,55,,267.265625
On,5,53,53,267.272727272727
On,5,62,53,267.272727272727
On,5,65,53,267.272727272727
Off,5,65,,269.992897727273
Off,5,62,,269.992897727273
Off,5,53,,269.992897727273
On,5,67,55,270
On,5,51,55,270
On,5,63,55,270
Off,5,63,,272.720170454546
Off,5,51,,272.720170454546
Off,5,67,,272.720170454546
On,5,67,54,272.727272727273
On,5,62,54,272.727272727273
On,5,55,54,272.727272727273
Off,5,55,,275.447443181818
Off,5,62,,275.447443181818
Off,5,67,,275.447443181818
On,5,67,54,275.454545454546
On,5,60,54,275.454545454546
On,5,51,54,275.454545454546
On,5,63,54,275.454545454546
Off,5,63,,278.174715909091
Off,5,51,,278.174715909091
Off,5,60,,278.174715909091
Off,5,67,,278.174715909091
On,5,62,54,278.181818181818
On,5,58,54,278.181818181818
On,5,53,54,278.181818181818
On,5,65,54,278.181818181818
Off,5,65,,280.901988636364
Off,5,53,,280.901988636364
Off,5,58,,280.901988636364
Off,5,62,,280.901988636364
On,5,58,54,280.909090909091
On,5,67,54,280.909090909091
On,5,70,54,280.909090909091
Off,5,70,,283.629261363637
Off,5,67,,283.629261363637
Off,5,58,,283.629261363637
On,5,57,54,283.636363636364
On,5,69,54,283.636363636364
On,5,65,54,283.636363636364
Off,5,65,,286.356534090909
Off,5,69,,286.356534090909
Off,5,57,,286.356534090909
On,5,55,54,286.363636363637
On,5,67,54,286.363636363637
On,5,63,54,286.363636363637
Off,5,63,,289.083806818182
Off,5,67,,289.083806818182
Off,5,55,,289.083806818182
On,5,53,53,289.090909090909
On,5,62,53,289.090909090909
On,5,65,53,289.090909090909
Off,5,53,,291.811079545455
Off,5,65,,291.811079545455
Off,5,62,,291.811079545455
Controller,5,101,0,297.272727272728
Controller,5,100,0,297.272727272728
Controller,5,6,12,297.272727272728
Controller,5,10,46,297.272727272728
Controller,5,7,127,297.272727272728
Pitch_Bend,5,64,0,297.272727272728
Program_Change,5,50,,297.272727272728
Controller,5,101,0,297.272727272728
Controller,5,100,0,297.272727272728
Controller,5,6,12,297.272727272728
Controller,5,10,46,297.272727272728
Controller,5,7,127,297.272727272728
Pitch_Bend,5,64,0,297.272727272728
Program_Change,5,50,,297.272727272728
Controller,5,101,0,297.272727272728
Controller,5,100,0,297.272727272728
Controller,5,6,12,297.272727272728
Controller,5,10,46,297.272727272728
Controller,5,7,127,297.272727272728
Pitch_Bend,5,64,0,297.272727272728
Program_Change,5,50,,297.272727272728
