Controller,11,10,96,0
Controller,11,7,127,0
Pitch_Bend,11,64,0,0
Controller,11,101,0,0
Controller,11,100,0,0
Controller,11,6,12,0
Controller,11,10,96,0
Controller,11,7,127,0
Pitch_Bend,11,64,0,0
Program_Change,11,117,,0
Controller,11,101,0,0
Controller,11,100,0,0
Controller,11,6,12,0
Controller,11,10,96,0
Controller,11,7,127,0
Pitch_Bend,11,64,0,0
Program_Change,11,117,,0
Controller,11,7,127,0
Controller,11,10,96,0
Controller,11,101,0,0
Controller,11,100,0,0
Controller,11,6,12,0
Controller,11,10,96,0
Controller,11,7,127,0
Pitch_Bend,11,64,0,0
Program_Change,11,117,,0
Controller,11,7,127,0
Controller,11,10,96,0
On,11,48,77,46.5340909090909
Off,11,48,,46.6974431818182
On,11,48,74,46.875
Off,11,48,,47.0383522727273
On,11,48,77,47.2159090909091
Off,11,48,,47.3792613636364
On,11,48,74,47.5568181818182
Off,11,48,,47.7201704545454
On,11,48,77,47.8977272727273
Off,11,48,,48.0610795454545
On,11,48,74,48.2386363636363
Off,11,48,,48.4019886363636
On,11,48,77,48.5795454545454
Off,11,48,,48.7428977272727
On,11,48,74,48.9204545454545
Off,11,48,,49.0838068181818
On,11,48,77,49.2613636363636
Off,11,48,,49.4247159090909
On,11,48,74,49.6022727272727
Off,11,48,,49.765625
On,11,48,77,49.9431818181818
Off,11,48,,50.1065340909091
On,11,48,74,50.2840909090909
Off,11,48,,50.4474431818181
On,11,48,77,50.625
Off,11,48,,50.7883522727272
On,11,48,74,50.9659090909091
Off,11,48,,51.1292613636363
On,11,48,77,51.3068181818181
Off,11,48,,51.4701704545454
On,11,48,74,51.6477272727272
Off,11,48,,51.8110795454545
On,11,48,77,51.9886363636363
Off,11,48,,52.1519886363636
On,11,48,74,52.3295454545454
Off,11,48,,52.4928977272727
On,11,48,77,52.6704545454545
Off,11,48,,52.8338068181818
On,11,48,74,53.0113636363636
Off,11,48,,53.1747159090909
On,11,48,77,53.3522727272727
Off,11,48,,53.5156249999999
On,11,48,74,53.6931818181818
Off,11,48,,53.856534090909
On,11,48,77,54.0340909090909
Off,11,48,,54.1974431818181
On,11,48,74,54.3749999999999
Off,11,48,,54.5383522727272
On,11,48,77,54.715909090909
Off,11,48,,54.8792613636363
On,11,48,74,55.0568181818181
Off,11,48,,55.2201704545454
On,11,48,77,55.3977272727272
Off,11,48,,55.5610795454545
On,11,48,74,55.7386363636363
Off,11,48,,55.9019886363636
On,11,48,77,56.0795454545454
Off,11,48,,56.2428977272726
On,11,48,74,56.4204545454545
Off,11,48,,56.5838068181817
On,11,48,77,56.7613636363636
Off,11,48,,56.9247159090908
On,11,48,74,57.1022727272726
Off,11,48,,57.2656249999999
On,11,48,77,57.4431818181817
Off,11,48,,57.606534090909
On,11,48,74,57.7840909090908
Off,11,48,,57.9474431818181
On,11,48,77,58.1249999999999
Off,11,48,,58.2883522727272
On,11,48,74,58.465909090909
Off,11,48,,58.6292613636363
On,11,48,77,58.8068181818181
Off,11,48,,58.9701704545454
On,11,48,74,59.1477272727272
Off,11,48,,59.3110795454544
On,11,48,77,59.4886363636363
Off,11,48,,59.6519886363635
On,11,48,74,59.8295454545453
Off,11,48,,59.9928977272726
On,11,48,77,60.1704545454544
Off,11,48,,60.3338068181817
On,11,48,74,60.5113636363635
Off,11,48,,60.6747159090908
On,11,48,77,60.8522727272726
Off,11,48,,61.0156249999999
On,11,48,74,61.1931818181817
Off,11,48,,61.356534090909
On,11,48,77,61.5340909090908
Off,11,48,,61.6974431818181
On,11,48,74,61.8749999999999
Off,11,48,,62.0383522727271
On,11,48,77,62.215909090909
Off,11,48,,62.3792613636362
On,11,48,74,62.5568181818181
Off,11,48,,62.7201704545453
On,11,48,77,62.8977272727271
Off,11,48,,63.0610795454544
On,11,48,74,63.2386363636362
Off,11,48,,63.4019886363635
On,11,48,77,63.5795454545453
Off,11,48,,63.7428977272726
On,11,48,74,63.9204545454544
Off,11,48,,64.0838068181817
On,11,48,77,64.2613636363635
Off,11,48,,64.4247159090908
On,11,48,74,64.6022727272726
Off,11,48,,64.7656249999999
On,11,48,77,64.9431818181817
Off,11,48,,65.1065340909089
On,11,48,74,65.2840909090908
Off,11,48,,65.447443181818
On,11,48,77,65.6249999999999
Off,11,48,,65.7883522727271
On,11,48,74,65.965909090909
Off,11,48,,66.1292613636362
On,11,48,77,66.3068181818181
Off,11,48,,66.4701704545453
On,11,48,74,66.6477272727272
Off,11,48,,66.8110795454544
On,11,48,77,66.9886363636363
Off,11,48,,67.1519886363635
On,11,48,74,67.3295454545454
Off,11,48,,67.4928977272726
On,11,48,77,67.6704545454545
Off,11,48,,67.8338068181818
On,11,48,74,68.0113636363636
Off,11,48,,68.1747159090909
On,11,55,78,90.1704545454545
Off,11,55,,90.2485795454545
On,11,53,65,90.2556818181818
Off,11,53,,90.3338068181818
On,11,52,54,90.3409090909091
Off,11,52,,90.4190340909091
On,11,52,54,90.5113636363636
Off,11,52,,90.5894886363636
On,11,55,69,90.6818181818181
Off,11,55,,90.7599431818181
On,11,52,56,90.8522727272727
Off,11,52,,90.9303977272727
On,11,59,74,91.0227272727272
Off,11,59,,91.1008522727272
On,11,52,60,91.1931818181818
Off,11,52,,91.2713068181818
On,11,55,78,91.5340909090909
Off,11,55,,91.6122159090909
On,11,53,65,91.6193181818181
Off,11,53,,91.6974431818181
On,11,52,54,91.7045454545454
Off,11,52,,91.7826704545454
On,11,52,54,91.875
Off,11,52,,91.953125
On,11,55,69,92.0454545454545
Off,11,55,,92.1235795454545
On,11,52,56,92.2159090909091
Off,11,52,,92.2940340909091
On,11,59,74,92.3863636363636
Off,11,59,,92.4644886363636
On,11,52,60,92.5568181818181
Off,11,52,,92.6349431818181
On,11,55,78,92.8977272727272
Off,11,55,,92.9758522727272
On,11,53,65,92.9829545454545
Off,11,53,,93.0610795454545
On,11,52,54,93.0681818181818
Off,11,52,,93.1463068181818
On,11,52,54,93.2386363636363
Off,11,52,,93.3167613636363
On,11,55,69,93.4090909090909
Off,11,55,,93.4872159090909
On,11,52,56,93.5795454545454
Off,11,52,,93.6576704545454
On,11,59,74,93.75
Off,11,59,,93.828125
On,11,52,60,93.9204545454545
Off,11,52,,93.9985795454545
On,11,55,78,94.2613636363636
Off,11,55,,94.3394886363636
On,11,53,65,94.3465909090909
Off,11,53,,94.4247159090909
On,11,52,54,94.4318181818181
Off,11,52,,94.5099431818181
On,11,52,54,94.6022727272727
Off,11,52,,94.6803977272727
On,11,55,69,94.7727272727272
Off,11,55,,94.8508522727272
On,11,52,56,94.9431818181818
Off,11,52,,95.0213068181818
On,11,59,74,95.1136363636363
Off,11,59,,95.1917613636363
On,11,52,60,95.2840909090909
Off,11,52,,95.3622159090909
On,11,48,77,117.272727272727
Off,11,48,,117.436079545455
On,11,48,74,117.613636363636
Off,11,48,,117.776988636364
On,11,48,77,117.954545454545
Off,11,48,,118.117897727273
On,11,48,74,118.295454545455
Off,11,48,,118.458806818182
On,11,48,77,118.636363636364
Off,11,48,,118.799715909091
On,11,48,74,118.977272727273
Off,11,48,,119.140625
On,11,48,77,119.318181818182
Off,11,48,,119.481534090909
On,11,48,74,119.659090909091
Off,11,48,,119.822443181818
On,11,48,77,120
Off,11,48,,120.163352272727
On,11,48,74,120.340909090909
Off,11,48,,120.504261363636
On,11,48,77,120.681818181818
Off,11,48,,120.845170454546
On,11,48,74,121.022727272727
Off,11,48,,121.186079545455
On,11,48,77,121.363636363636
Off,11,48,,121.526988636364
On,11,48,74,121.704545454546
Off,11,48,,121.867897727273
On,11,48,77,122.045454545455
Off,11,48,,122.208806818182
On,11,48,74,122.386363636364
Off,11,48,,122.549715909091
On,11,48,77,122.727272727273
Off,11,48,,122.890625
On,11,48,74,123.068181818182
Off,11,48,,123.231534090909
On,11,48,77,123.409090909091
Off,11,48,,123.572443181818
On,11,48,74,123.75
Off,11,48,,123.913352272727
On,11,48,77,124.090909090909
Off,11,48,,124.254261363637
On,11,48,74,124.431818181818
Off,11,48,,124.595170454546
On,11,48,77,124.772727272727
Off,11,48,,124.936079545455
On,11,48,74,125.113636363637
Off,11,48,,125.276988636364
On,11,48,77,125.454545454546
Off,11,48,,125.617897727273
On,11,48,74,125.795454545455
Off,11,48,,125.958806818182
On,11,48,77,126.136363636364
Off,11,48,,126.299715909091
On,11,48,74,126.477272727273
Off,11,48,,126.640625
On,11,48,77,126.818181818182
Off,11,48,,126.981534090909
On,11,48,74,127.159090909091
Off,11,48,,127.322443181819
On,11,48,77,127.5
Off,11,48,,127.663352272728
On,11,48,74,127.840909090909
Off,11,48,,128.004261363637
On,11,48,77,128.181818181819
Off,11,48,,128.345170454546
On,11,48,74,128.522727272728
Off,11,48,,128.686079545455
On,11,48,77,128.863636363637
Off,11,48,,129.026988636364
On,11,48,74,129.204545454546
Off,11,48,,129.367897727273
On,11,48,77,129.545454545455
Off,11,48,,129.708806818182
On,11,48,74,129.886363636364
Off,11,48,,130.049715909091
On,11,48,77,130.227272727273
Off,11,48,,130.390625
On,11,48,74,130.568181818182
Off,11,48,,130.73153409091
On,11,48,77,130.909090909091
Off,11,48,,131.072443181819
On,11,48,74,131.25
Off,11,48,,131.413352272728
On,11,48,77,131.59090909091
Off,11,48,,131.754261363637
On,11,48,74,131.931818181819
Off,11,48,,132.095170454546
On,11,48,77,132.272727272728
Off,11,48,,132.436079545455
On,11,48,74,132.613636363637
Off,11,48,,132.776988636364
On,11,48,77,132.954545454546
Off,11,48,,133.117897727273
On,11,48,74,133.295454545455
Off,11,48,,133.458806818182
On,11,48,77,133.636363636364
Off,11,48,,133.799715909091
On,11,48,74,133.977272727273
Off,11,48,,134.140625
On,11,48,77,134.318181818182
Off,11,48,,134.481534090909
On,11,48,74,134.659090909091
Off,11,48,,134.822443181819
On,11,48,77,135
Off,11,48,,135.163352272728
On,11,48,74,135.340909090909
Off,11,48,,135.504261363637
On,11,48,77,135.681818181819
Off,11,48,,135.845170454546
On,11,48,74,136.022727272728
Off,11,48,,136.186079545455
On,11,48,77,136.363636363637
Off,11,48,,136.526988636364
On,11,48,74,136.704545454546
Off,11,48,,136.867897727273
On,11,48,77,137.045454545455
Off,11,48,,137.208806818182
On,11,48,74,137.386363636364
Off,11,48,,137.549715909091
On,11,48,77,137.727272727273
Off,11,48,,137.890625
On,11,48,74,138.068181818182
Off,11,48,,138.231534090909
On,11,48,77,138.409090909091
Off,11,48,,138.572443181819
On,11,48,74,138.75
Off,11,48,,138.913352272728
On,11,48,77,248.352272727273
Off,11,48,,248.515625
On,11,48,74,248.693181818182
Off,11,48,,248.856534090909
On,11,48,77,249.034090909091
Off,11,48,,249.197443181819
On,11,48,74,249.375
Off,11,48,,249.538352272728
On,11,48,77,249.715909090909
Off,11,48,,249.879261363637
On,11,48,74,250.056818181819
Off,11,48,,250.220170454546
On,11,48,77,250.397727272728
Off,11,48,,250.561079545455
On,11,48,74,250.738636363637
Off,11,48,,250.901988636364
On,11,48,77,251.079545454546
Off,11,48,,251.242897727273
On,11,48,74,251.420454545455
Off,11,48,,251.583806818182
On,11,48,77,251.761363636364
Off,11,48,,251.924715909091
On,11,48,74,252.102272727273
Off,11,48,,252.265625
On,11,48,77,252.443181818182
Off,11,48,,252.606534090909
On,11,48,74,252.784090909091
Off,11,48,,252.947443181819
On,11,48,77,253.125
Off,11,48,,253.288352272728
On,11,48,74,253.465909090909
Off,11,48,,253.629261363637
On,11,48,77,253.806818181819
Off,11,48,,253.970170454546
On,11,48,74,254.147727272728
Off,11,48,,254.311079545455
On,11,48,77,254.488636363637
Off,11,48,,254.651988636364
On,11,48,74,254.829545454546
Off,11,48,,254.992897727273
On,11,48,77,255.170454545455
Off,11,48,,255.333806818182
On,11,48,74,255.511363636364
Off,11,48,,255.674715909091
On,11,48,77,255.852272727273
Off,11,48,,256.015625
On,11,48,74,256.193181818182
Off,11,48,,256.356534090909
On,11,48,77,256.534090909091
Off,11,48,,256.697443181818
On,11,48,74,256.875
Off,11,48,,257.038352272728
On,11,48,77,257.215909090909
Off,11,48,,257.379261363637
On,11,48,74,257.556818181818
Off,11,48,,257.720170454546
On,11,48,77,257.897727272728
Off,11,48,,258.061079545455
On,11,48,74,258.238636363637
Off,11,48,,258.401988636364
On,11,48,77,258.579545454546
Off,11,48,,258.742897727273
On,11,48,74,258.920454545455
Off,11,48,,259.083806818182
On,11,48,77,259.261363636364
Off,11,48,,259.424715909091
On,11,48,74,259.602272727273
Off,11,48,,259.765625
On,11,48,77,259.943181818182
Off,11,48,,260.106534090909
On,11,48,74,260.284090909091
Off,11,48,,260.447443181818
On,11,48,77,260.625
Off,11,48,,260.788352272728
On,11,48,74,260.965909090909
Off,11,48,,261.129261363637
On,11,48,77,261.306818181818
Off,11,48,,261.470170454546
On,11,48,74,261.647727272728
Off,11,48,,261.811079545455
On,11,48,77,261.988636363637
Off,11,48,,262.151988636364
On,11,48,74,262.329545454546
Off,11,48,,262.492897727273
On,11,48,77,262.670454545455
Off,11,48,,262.833806818182
On,11,48,74,263.011363636364
Off,11,48,,263.174715909091
On,11,48,77,263.352272727273
Off,11,48,,263.515625
On,11,48,74,263.693181818182
Off,11,48,,263.856534090909
On,11,48,77,264.034090909091
Off,11,48,,264.197443181819
On,11,48,74,264.375
Off,11,48,,264.538352272728
On,11,48,77,264.71590909091
Off,11,48,,264.879261363637
On,11,48,74,265.056818181819
Off,11,48,,265.220170454546
On,11,48,77,265.397727272728
Off,11,48,,265.561079545455
On,11,48,74,265.738636363637
Off,11,48,,265.901988636364
On,11,48,77,266.079545454546
Off,11,48,,266.242897727273
On,11,48,74,266.420454545455
Off,11,48,,266.583806818182
On,11,48,77,266.761363636364
Off,11,48,,266.924715909092
On,11,48,74,267.102272727273
Off,11,48,,267.265625000001
On,11,48,77,267.443181818182
Off,11,48,,267.60653409091
On,11,48,74,267.784090909092
Off,11,48,,267.947443181819
On,11,48,77,268.125000000001
Off,11,48,,268.288352272728
On,11,48,74,268.46590909091
Off,11,48,,268.629261363637
On,11,48,77,268.806818181819
Off,11,48,,268.970170454546
On,11,48,74,269.147727272728
Off,11,48,,269.311079545455
On,11,48,77,269.488636363637
Off,11,48,,269.651988636364
On,11,48,74,269.829545454546
Off,11,48,,269.992897727274
On,11,48,77,270.170454545455
Off,11,48,,270.333806818183
On,11,48,74,270.511363636365
Off,11,48,,270.674715909092
On,11,48,77,270.852272727274
Off,11,48,,271.015625000001
On,11,48,74,271.193181818183
Off,11,48,,271.35653409091
On,11,48,77,271.534090909092
Off,11,48,,271.697443181819
On,11,48,74,271.875000000001
Off,11,48,,272.038352272728
On,11,48,77,272.21590909091
Off,11,48,,272.379261363637
On,11,48,74,272.556818181819
Off,11,48,,272.720170454547
On,11,48,77,272.897727272728
Off,11,48,,273.061079545456
On,11,48,74,273.238636363637
Off,11,48,,273.401988636365
On,11,48,77,273.579545454547
Off,11,48,,273.742897727274
On,11,48,74,273.920454545456
Off,11,48,,274.083806818183
On,11,48,77,274.261363636365
Off,11,48,,274.424715909092
On,11,48,74,274.602272727274
Off,11,48,,274.765625000001
On,11,48,77,274.943181818183
Off,11,48,,275.10653409091
On,11,48,74,275.284090909092
Off,11,48,,275.447443181819
On,11,48,77,275.625000000001
Off,11,48,,275.788352272729
On,11,48,74,275.96590909091
Off,11,48,,276.129261363638
On,11,48,77,276.306818181819
Off,11,48,,276.470170454547
On,11,48,74,276.647727272729
Off,11,48,,276.811079545456
On,11,48,77,276.988636363638
Off,11,48,,277.151988636365
On,11,48,74,277.329545454547
Off,11,48,,277.492897727274
On,11,48,77,277.670454545456
Off,11,48,,277.833806818183
On,11,48,74,278.011363636365
Off,11,48,,278.174715909092
On,11,48,77,278.352272727274
Off,11,48,,278.515625000002
On,11,48,74,278.693181818183
Off,11,48,,278.856534090911
On,11,48,77,279.034090909092
Off,11,48,,279.19744318182
On,11,48,74,279.375000000002
Off,11,48,,279.538352272729
On,11,48,77,279.715909090911
Off,11,48,,279.879261363638
On,11,48,74,280.05681818182
Off,11,48,,280.220170454547
On,11,48,77,280.397727272729
Off,11,48,,280.561079545456
On,11,48,74,280.738636363638
Off,11,48,,280.901988636365
On,11,48,77,281.079545454547
Off,11,48,,281.242897727274
On,11,48,74,281.420454545456
Off,11,48,,281.583806818184
On,11,48,77,281.761363636365
Off,11,48,,281.924715909093
On,11,48,74,282.102272727275
Off,11,48,,282.265625000002
On,11,48,77,282.443181818184
Off,11,48,,282.606534090911
On,11,48,74,282.784090909093
Off,11,48,,282.94744318182
On,11,48,77,283.125000000002
Off,11,48,,283.288352272729
On,11,48,74,283.465909090911
Off,11,48,,283.629261363638
On,11,48,77,283.80681818182
Off,11,48,,283.970170454547
On,11,48,74,284.147727272729
Off,11,48,,284.311079545456
On,11,48,77,284.488636363638
Off,11,48,,284.651988636366
On,11,48,74,284.829545454547
Off,11,48,,284.992897727275
On,11,48,77,285.170454545457
Off,11,48,,285.333806818184
On,11,48,74,285.511363636366
Off,11,48,,285.674715909093
On,11,48,77,285.852272727275
Off,11,48,,286.015625000002
On,11,48,74,286.193181818184
Off,11,48,,286.356534090911
On,11,48,77,286.534090909093
Off,11,48,,286.69744318182
On,11,48,74,286.875000000002
Off,11,48,,287.038352272729
On,11,48,77,287.215909090911
Off,11,48,,287.379261363639
On,11,48,74,287.55681818182
Off,11,48,,287.720170454548
On,11,48,77,287.89772727273
Off,11,48,,288.061079545457
On,11,48,74,288.238636363639
Off,11,48,,288.401988636366
On,11,48,77,288.579545454548
Off,11,48,,288.742897727275
On,11,48,74,288.920454545457
Off,11,48,,289.083806818184
On,11,48,77,289.261363636366
Off,11,48,,289.424715909093
On,11,48,74,289.602272727275
Off,11,48,,289.765625000002
On,11,48,77,289.943181818184
Off,11,48,,290.106534090912
On,11,48,74,290.284090909093
Off,11,48,,290.447443181821
On,11,48,77,290.625000000002
Off,11,48,,290.78835227273
On,11,48,74,290.965909090912
Off,11,48,,291.129261363639
On,11,48,77,291.306818181821
Off,11,48,,291.470170454548
On,11,48,74,291.64772727273
Off,11,48,,291.811079545457
Controller,11,101,0,297.27272727273
Controller,11,100,0,297.27272727273
Controller,11,6,12,297.27272727273
Controller,11,10,96,297.27272727273
Controller,11,7,127,297.27272727273
Pitch_Bend,11,64,0,297.27272727273
Program_Change,11,117,,297.27272727273
Controller,11,101,0,297.27272727273
Controller,11,100,0,297.27272727273
Controller,11,6,12,297.27272727273
Controller,11,10,96,297.27272727273
Controller,11,7,127,297.27272727273
Pitch_Bend,11,64,0,297.27272727273
Program_Change,11,117,,297.27272727273
Controller,11,101,0,297.27272727273
Controller,11,100,0,297.27272727273
Controller,11,6,12,297.27272727273
Controller,11,10,96,297.27272727273
Controller,11,7,127,297.27272727273
Pitch_Bend,11,64,0,297.27272727273
Program_Change,11,117,,297.27272727273
