Controller,15,10,0,0
Controller,15,7,127,0
Pitch_Bend,15,64,0,0
Controller,15,101,0,0
Controller,15,100,0,0
Controller,15,6,12,0
Controller,15,7,127,0
Pitch_Bend,15,64,0,0
Program_Change,15,112,,0
Controller,15,101,0,0
Controller,15,100,0,0
Controller,15,6,12,0
Controller,15,7,127,0
Pitch_Bend,15,64,0,0
Program_Change,15,112,,0
Controller,15,10,0,0
Controller,15,7,127,0
Controller,15,101,0,0
Controller,15,100,0,0
Controller,15,6,12,0
Controller,15,7,127,0
Pitch_Bend,15,64,0,0
Program_Change,15,112,,0
Controller,15,10,0,0
Controller,15,7,127,0
On,15,94,36,91.1931818181818
Off,15,94,,91.3565340909091
On,15,94,32,91.5340909090909
Off,15,94,,91.6974431818182
On,15,94,43,92.0454545454546
Off,15,94,,92.2088068181818
On,15,94,37,92.3863636363637
Off,15,94,,92.5497159090909
On,15,94,44,93.9204545454546
Off,15,94,,94.0838068181819
On,15,94,34,94.2613636363637
Off,15,94,,94.4247159090909
On,15,93,46,94.7727272727273
Off,15,93,,94.9360795454546
On,15,93,36,95.1136363636364
Off,15,93,,95.2769886363637
Controller,15,101,0,297.272727272727
Controller,15,100,0,297.272727272727
Controller,15,6,12,297.272727272727
Controller,15,7,127,297.272727272727
Pitch_Bend,15,64,0,297.272727272727
Program_Change,15,112,,297.272727272727
Controller,15,101,0,297.272727272727
Controller,15,100,0,297.272727272727
Controller,15,6,12,297.272727272727
Controller,15,7,127,297.272727272727
Pitch_Bend,15,64,0,297.272727272727
Program_Change,15,112,,297.272727272727
Controller,15,101,0,297.272727272727
Controller,15,100,0,297.272727272727
Controller,15,6,12,297.272727272727
Controller,15,7,127,297.272727272727
Pitch_Bend,15,64,0,297.272727272727
Program_Change,15,112,,297.272727272727
