None,Sequence_Or_Track_Name,0,18,0,0
Controller,None,11,10,96,0
Controller,None,11,7,127,0
Pitch_Bend,None,11,64,0,0
Controller,None,11,101,0,0
Controller,None,11,100,0,0
Controller,None,11,6,12,0
Controller,None,11,10,96,0
Controller,None,11,7,127,0
Pitch_Bend,None,11,64,0,0
Program_Change,None,11,117,0,0
Controller,None,11,101,0,0
Controller,None,11,100,0,0
Controller,None,11,6,12,0
Controller,None,11,10,96,0
Controller,None,11,7,127,0
Pitch_Bend,None,11,64,0,0
Program_Change,None,11,117,0,0
Controller,None,11,7,127,0
Controller,None,11,10,96,0
Controller,None,11,101,0,0
Controller,None,11,100,0,0
Controller,None,11,6,12,0
Controller,None,11,10,96,0
Controller,None,11,7,127,0
Pitch_Bend,None,11,64,0,0
Program_Change,None,11,117,0,0
Controller,None,11,7,127,0
Controller,None,11,10,96,0
Note_On,None,11,48,77,6552
Note_Off,None,11,48,77,23
Note_On,None,11,48,74,25
Note_Off,None,11,48,74,23
Note_On,None,11,48,77,25
Note_Off,None,11,48,77,23
Note_On,None,11,48,74,25
Note_Off,None,11,48,74,23
Note_On,None,11,48,77,25
Note_Off,None,11,48,77,23
Note_On,None,11,48,74,25
Note_Off,None,11,48,74,23
Note_On,None,11,48,77,25
Note_Off,None,11,48,77,23
Note_On,None,11,48,74,25
Note_Off,None,11,48,74,23
Note_On,None,11,48,77,25
Note_Off,None,11,48,77,23
Note_On,None,11,48,74,25
Note_Off,None,11,48,74,23
Note_On,None,11,48,77,25
Note_Off,None,11,48,77,23
Note_On,None,11,48,74,25
Note_Off,None,11,48,74,23
Note_On,None,11,48,77,25
Note_Off,None,11,48,77,23
Note_On,None,11,48,74,25
Note_Off,None,11,48,74,23
Note_On,None,11,48,77,25
Note_Off,None,11,48,77,23
Note_On,None,11,48,74,25
Note_Off,None,11,48,74,23
Note_On,None,11,48,77,25
Note_Off,None,11,48,77,23
Note_On,None,11,48,74,25
Note_Off,None,11,48,74,23
Note_On,None,11,48,77,25
Note_Off,None,11,48,77,23
Note_On,None,11,48,74,25
Note_Off,None,11,48,74,23
Note_On,None,11,48,77,25
Note_Off,None,11,48,77,23
Note_On,None,11,48,74,25
Note_Off,None,11,48,74,23
Note_On,None,11,48,77,25
Note_Off,None,11,48,77,23
Note_On,None,11,48,74,25
Note_Off,None,11,48,74,23
Note_On,None,11,48,77,25
Note_Off,None,11,48,77,23
Note_On,None,11,48,74,25
Note_Off,None,11,48,74,23
Note_On,None,11,48,77,25
Note_Off,None,11,48,77,23
Note_On,None,11,48,74,25
Note_Off,None,11,48,74,23
Note_On,None,11,48,77,25
Note_Off,None,11,48,77,23
Note_On,None,11,48,74,25
Note_Off,None,11,48,74,23
Note_On,None,11,48,77,25
Note_Off,None,11,48,77,23
Note_On,None,11,48,74,25
Note_Off,None,11,48,74,23
Note_On,None,11,48,77,25
Note_Off,None,11,48,77,23
Note_On,None,11,48,74,25
Note_Off,None,11,48,74,23
Note_On,None,11,48,77,25
Note_Off,None,11,48,77,23
Note_On,None,11,48,74,25
Note_Off,None,11,48,74,23
Note_On,None,11,48,77,25
Note_Off,None,11,48,77,23
Note_On,None,11,48,74,25
Note_Off,None,11,48,74,23
Note_On,None,11,48,77,25
Note_Off,None,11,48,77,23
Note_On,None,11,48,74,25
Note_Off,None,11,48,74,23
Note_On,None,11,48,77,25
Note_Off,None,11,48,77,23
Note_On,None,11,48,74,25
Note_Off,None,11,48,74,23
Note_On,None,11,48,77,25
Note_Off,None,11,48,77,23
Note_On,None,11,48,74,25
Note_Off,None,11,48,74,23
Note_On,None,11,48,77,25
Note_Off,None,11,48,77,23
Note_On,None,11,48,74,25
Note_Off,None,11,48,74,23
Note_On,None,11,48,77,25
Note_Off,None,11,48,77,23
Note_On,None,11,48,74,25
Note_Off,None,11,48,74,23
Note_On,None,11,48,77,25
Note_Off,None,11,48,77,23
Note_On,None,11,48,74,25
Note_Off,None,11,48,74,23
Note_On,None,11,48,77,25
Note_Off,None,11,48,77,23
Note_On,None,11,48,74,25
Note_Off,None,11,48,74,23
Note_On,None,11,48,77,25
Note_Off,None,11,48,77,23
Note_On,None,11,48,74,25
Note_Off,None,11,48,74,23
Note_On,None,11,48,77,25
Note_Off,None,11,48,77,23
Note_On,None,11,48,74,25
Note_Off,None,11,48,74,23
Note_On,None,11,48,77,25
Note_Off,None,11,48,77,23
Note_On,None,11,48,74,25
Note_Off,None,11,48,74,23
Note_On,None,11,48,77,25
Note_Off,None,11,48,77,23
Note_On,None,11,48,74,25
Note_Off,None,11,48,74,23
Note_On,None,11,48,77,25
Note_Off,None,11,48,77,23
Note_On,None,11,48,74,25
Note_Off,None,11,48,74,23
Note_On,None,11,48,77,25
Note_Off,None,11,48,77,23
Note_On,None,11,48,74,25
Note_Off,None,11,48,74,23
Note_On,None,11,55,78,3097
Note_Off,None,11,55,78,11
Note_On,None,11,53,65,1
Note_Off,None,11,53,65,11
Note_On,None,11,52,54,1
Note_Off,None,11,52,54,11
Note_On,None,11,52,54,13
Note_Off,None,11,52,54,11
Note_On,None,11,55,69,13
Note_Off,None,11,55,69,11
Note_On,None,11,52,56,13
Note_Off,None,11,52,56,11
Note_On,None,11,59,74,13
Note_Off,None,11,59,74,11
Note_On,None,11,52,60,13
Note_Off,None,11,52,60,11
Note_On,None,11,55,78,37
Note_Off,None,11,55,78,11
Note_On,None,11,53,65,1
Note_Off,None,11,53,65,11
Note_On,None,11,52,54,1
Note_Off,None,11,52,54,11
Note_On,None,11,52,54,13
Note_Off,None,11,52,54,11
Note_On,None,11,55,69,13
Note_Off,None,11,55,69,11
Note_On,None,11,52,56,13
Note_Off,None,11,52,56,11
Note_On,None,11,59,74,13
Note_Off,None,11,59,74,11
Note_On,None,11,52,60,13
Note_Off,None,11,52,60,11
Note_On,None,11,55,78,37
Note_Off,None,11,55,78,11
Note_On,None,11,53,65,1
Note_Off,None,11,53,65,11
Note_On,None,11,52,54,1
Note_Off,None,11,52,54,11
Note_On,None,11,52,54,13
Note_Off,None,11,52,54,11
Note_On,None,11,55,69,13
Note_Off,None,11,55,69,11
Note_On,None,11,52,56,13
Note_Off,None,11,52,56,11
Note_On,None,11,59,74,13
Note_Off,None,11,59,74,11
Note_On,None,11,52,60,13
Note_Off,None,11,52,60,11
Note_On,None,11,55,78,37
Note_Off,None,11,55,78,11
Note_On,None,11,53,65,1
Note_Off,None,11,53,65,11
Note_On,None,11,52,54,1
Note_Off,None,11,52,54,11
Note_On,None,11,52,54,13
Note_Off,None,11,52,54,11
Note_On,None,11,55,69,13
Note_Off,None,11,55,69,11
Note_On,None,11,52,56,13
Note_Off,None,11,52,56,11
Note_On,None,11,59,74,13
Note_Off,None,11,59,74,11
Note_On,None,11,52,60,13
Note_Off,None,11,52,60,11
Note_On,None,11,48,77,3085
Note_Off,None,11,48,77,23
Note_On,None,11,48,74,25
Note_Off,None,11,48,74,23
Note_On,None,11,48,77,25
Note_Off,None,11,48,77,23
Note_On,None,11,48,74,25
Note_Off,None,11,48,74,23
Note_On,None,11,48,77,25
Note_Off,None,11,48,77,23
Note_On,None,11,48,74,25
Note_Off,None,11,48,74,23
Note_On,None,11,48,77,25
Note_Off,None,11,48,77,23
Note_On,None,11,48,74,25
Note_Off,None,11,48,74,23
Note_On,None,11,48,77,25
Note_Off,None,11,48,77,23
Note_On,None,11,48,74,25
Note_Off,None,11,48,74,23
Note_On,None,11,48,77,25
Note_Off,None,11,48,77,23
Note_On,None,11,48,74,25
Note_Off,None,11,48,74,23
Note_On,None,11,48,77,25
Note_Off,None,11,48,77,23
Note_On,None,11,48,74,25
Note_Off,None,11,48,74,23
Note_On,None,11,48,77,25
Note_Off,None,11,48,77,23
Note_On,None,11,48,74,25
Note_Off,None,11,48,74,23
Note_On,None,11,48,77,25
Note_Off,None,11,48,77,23
Note_On,None,11,48,74,25
Note_Off,None,11,48,74,23
Note_On,None,11,48,77,25
Note_Off,None,11,48,77,23
Note_On,None,11,48,74,25
Note_Off,None,11,48,74,23
Note_On,None,11,48,77,25
Note_Off,None,11,48,77,23
Note_On,None,11,48,74,25
Note_Off,None,11,48,74,23
Note_On,None,11,48,77,25
Note_Off,None,11,48,77,23
Note_On,None,11,48,74,25
Note_Off,None,11,48,74,23
Note_On,None,11,48,77,25
Note_Off,None,11,48,77,23
Note_On,None,11,48,74,25
Note_Off,None,11,48,74,23
Note_On,None,11,48,77,25
Note_Off,None,11,48,77,23
Note_On,None,11,48,74,25
Note_Off,None,11,48,74,23
Note_On,None,11,48,77,25
Note_Off,None,11,48,77,23
Note_On,None,11,48,74,25
Note_Off,None,11,48,74,23
Note_On,None,11,48,77,25
Note_Off,None,11,48,77,23
Note_On,None,11,48,74,25
Note_Off,None,11,48,74,23
Note_On,None,11,48,77,25
Note_Off,None,11,48,77,23
Note_On,None,11,48,74,25
Note_Off,None,11,48,74,23
Note_On,None,11,48,77,25
Note_Off,None,11,48,77,23
Note_On,None,11,48,74,25
Note_Off,None,11,48,74,23
Note_On,None,11,48,77,25
Note_Off,None,11,48,77,23
Note_On,None,11,48,74,25
Note_Off,None,11,48,74,23
Note_On,None,11,48,77,25
Note_Off,None,11,48,77,23
Note_On,None,11,48,74,25
Note_Off,None,11,48,74,23
Note_On,None,11,48,77,25
Note_Off,None,11,48,77,23
Note_On,None,11,48,74,25
Note_Off,None,11,48,74,23
Note_On,None,11,48,77,25
Note_Off,None,11,48,77,23
Note_On,None,11,48,74,25
Note_Off,None,11,48,74,23
Note_On,None,11,48,77,25
Note_Off,None,11,48,77,23
Note_On,None,11,48,74,25
Note_Off,None,11,48,74,23
Note_On,None,11,48,77,25
Note_Off,None,11,48,77,23
Note_On,None,11,48,74,25
Note_Off,None,11,48,74,23
Note_On,None,11,48,77,25
Note_Off,None,11,48,77,23
Note_On,None,11,48,74,25
Note_Off,None,11,48,74,23
Note_On,None,11,48,77,25
Note_Off,None,11,48,77,23
Note_On,None,11,48,74,25
Note_Off,None,11,48,74,23
Note_On,None,11,48,77,25
Note_Off,None,11,48,77,23
Note_On,None,11,48,74,25
Note_Off,None,11,48,74,23
Note_On,None,11,48,77,25
Note_Off,None,11,48,77,23
Note_On,None,11,48,74,25
Note_Off,None,11,48,74,23
Note_On,None,11,48,77,25
Note_Off,None,11,48,77,23
Note_On,None,11,48,74,25
Note_Off,None,11,48,74,23
Note_On,None,11,48,77,25
Note_Off,None,11,48,77,23
Note_On,None,11,48,74,25
Note_Off,None,11,48,74,23
Note_On,None,11,48,77,25
Note_Off,None,11,48,77,23
Note_On,None,11,48,74,25
Note_Off,None,11,48,74,23
Note_On,None,11,48,77,25
Note_Off,None,11,48,77,23
Note_On,None,11,48,74,25
Note_Off,None,11,48,74,23
Note_On,None,11,48,77,15409
Note_Off,None,11,48,77,23
Note_On,None,11,48,74,25
Note_Off,None,11,48,74,23
Note_On,None,11,48,77,25
Note_Off,None,11,48,77,23
Note_On,None,11,48,74,25
Note_Off,None,11,48,74,23
Note_On,None,11,48,77,25
Note_Off,None,11,48,77,23
Note_On,None,11,48,74,25
Note_Off,None,11,48,74,23
Note_On,None,11,48,77,25
Note_Off,None,11,48,77,23
Note_On,None,11,48,74,25
Note_Off,None,11,48,74,23
Note_On,None,11,48,77,25
Note_Off,None,11,48,77,23
Note_On,None,11,48,74,25
Note_Off,None,11,48,74,23
Note_On,None,11,48,77,25
Note_Off,None,11,48,77,23
Note_On,None,11,48,74,25
Note_Off,None,11,48,74,23
Note_On,None,11,48,77,25
Note_Off,None,11,48,77,23
Note_On,None,11,48,74,25
Note_Off,None,11,48,74,23
Note_On,None,11,48,77,25
Note_Off,None,11,48,77,23
Note_On,None,11,48,74,25
Note_Off,None,11,48,74,23
Note_On,None,11,48,77,25
Note_Off,None,11,48,77,23
Note_On,None,11,48,74,25
Note_Off,None,11,48,74,23
Note_On,None,11,48,77,25
Note_Off,None,11,48,77,23
Note_On,None,11,48,74,25
Note_Off,None,11,48,74,23
Note_On,None,11,48,77,25
Note_Off,None,11,48,77,23
Note_On,None,11,48,74,25
Note_Off,None,11,48,74,23
Note_On,None,11,48,77,25
Note_Off,None,11,48,77,23
Note_On,None,11,48,74,25
Note_Off,None,11,48,74,23
Note_On,None,11,48,77,25
Note_Off,None,11,48,77,23
Note_On,None,11,48,74,25
Note_Off,None,11,48,74,23
Note_On,None,11,48,77,25
Note_Off,None,11,48,77,23
Note_On,None,11,48,74,25
Note_Off,None,11,48,74,23
Note_On,None,11,48,77,25
Note_Off,None,11,48,77,23
Note_On,None,11,48,74,25
Note_Off,None,11,48,74,23
Note_On,None,11,48,77,25
Note_Off,None,11,48,77,23
Note_On,None,11,48,74,25
Note_Off,None,11,48,74,23
Note_On,None,11,48,77,25
Note_Off,None,11,48,77,23
Note_On,None,11,48,74,25
Note_Off,None,11,48,74,23
Note_On,None,11,48,77,25
Note_Off,None,11,48,77,23
Note_On,None,11,48,74,25
Note_Off,None,11,48,74,23
Note_On,None,11,48,77,25
Note_Off,None,11,48,77,23
Note_On,None,11,48,74,25
Note_Off,None,11,48,74,23
Note_On,None,11,48,77,25
Note_Off,None,11,48,77,23
Note_On,None,11,48,74,25
Note_Off,None,11,48,74,23
Note_On,None,11,48,77,25
Note_Off,None,11,48,77,23
Note_On,None,11,48,74,25
Note_Off,None,11,48,74,23
Note_On,None,11,48,77,25
Note_Off,None,11,48,77,23
Note_On,None,11,48,74,25
Note_Off,None,11,48,74,23
Note_On,None,11,48,77,25
Note_Off,None,11,48,77,23
Note_On,None,11,48,74,25
Note_Off,None,11,48,74,23
Note_On,None,11,48,77,25
Note_Off,None,11,48,77,23
Note_On,None,11,48,74,25
Note_Off,None,11,48,74,23
Note_On,None,11,48,77,25
Note_Off,None,11,48,77,23
Note_On,None,11,48,74,25
Note_Off,None,11,48,74,23
Note_On,None,11,48,77,25
Note_Off,None,11,48,77,23
Note_On,None,11,48,74,25
Note_Off,None,11,48,74,23
Note_On,None,11,48,77,25
Note_Off,None,11,48,77,23
Note_On,None,11,48,74,25
Note_Off,None,11,48,74,23
Note_On,None,11,48,77,25
Note_Off,None,11,48,77,23
Note_On,None,11,48,74,25
Note_Off,None,11,48,74,23
Note_On,None,11,48,77,25
Note_Off,None,11,48,77,23
Note_On,None,11,48,74,25
Note_Off,None,11,48,74,23
Note_On,None,11,48,77,25
Note_Off,None,11,48,77,23
Note_On,None,11,48,74,25
Note_Off,None,11,48,74,23
Note_On,None,11,48,77,25
Note_Off,None,11,48,77,23
Note_On,None,11,48,74,25
Note_Off,None,11,48,74,23
Note_On,None,11,48,77,25
Note_Off,None,11,48,77,23
Note_On,None,11,48,74,25
Note_Off,None,11,48,74,23
Note_On,None,11,48,77,25
Note_Off,None,11,48,77,23
Note_On,None,11,48,74,25
Note_Off,None,11,48,74,23
Note_On,None,11,48,77,25
Note_Off,None,11,48,77,23
Note_On,None,11,48,74,25
Note_Off,None,11,48,74,23
Note_On,None,11,48,77,25
Note_Off,None,11,48,77,23
Note_On,None,11,48,74,25
Note_Off,None,11,48,74,23
Note_On,None,11,48,77,25
Note_Off,None,11,48,77,23
Note_On,None,11,48,74,25
Note_Off,None,11,48,74,23
Note_On,None,11,48,77,25
Note_Off,None,11,48,77,23
Note_On,None,11,48,74,25
Note_Off,None,11,48,74,23
Note_On,None,11,48,77,25
Note_Off,None,11,48,77,23
Note_On,None,11,48,74,25
Note_Off,None,11,48,74,23
Note_On,None,11,48,77,25
Note_Off,None,11,48,77,23
Note_On,None,11,48,74,25
Note_Off,None,11,48,74,23
Note_On,None,11,48,77,25
Note_Off,None,11,48,77,23
Note_On,None,11,48,74,25
Note_Off,None,11,48,74,23
Note_On,None,11,48,77,25
Note_Off,None,11,48,77,23
Note_On,None,11,48,74,25
Note_Off,None,11,48,74,23
Note_On,None,11,48,77,25
Note_Off,None,11,48,77,23
Note_On,None,11,48,74,25
Note_Off,None,11,48,74,23
Note_On,None,11,48,77,25
Note_Off,None,11,48,77,23
Note_On,None,11,48,74,25
Note_Off,None,11,48,74,23
Note_On,None,11,48,77,25
Note_Off,None,11,48,77,23
Note_On,None,11,48,74,25
Note_Off,None,11,48,74,23
Note_On,None,11,48,77,25
Note_Off,None,11,48,77,23
Note_On,None,11,48,74,25
Note_Off,None,11,48,74,23
Note_On,None,11,48,77,25
Note_Off,None,11,48,77,23
Note_On,None,11,48,74,25
Note_Off,None,11,48,74,23
Note_On,None,11,48,77,25
Note_Off,None,11,48,77,23
Note_On,None,11,48,74,25
Note_Off,None,11,48,74,23
Note_On,None,11,48,77,25
Note_Off,None,11,48,77,23
Note_On,None,11,48,74,25
Note_Off,None,11,48,74,23
Note_On,None,11,48,77,25
Note_Off,None,11,48,77,23
Note_On,None,11,48,74,25
Note_Off,None,11,48,74,23
Note_On,None,11,48,77,25
Note_Off,None,11,48,77,23
Note_On,None,11,48,74,25
Note_Off,None,11,48,74,23
Note_On,None,11,48,77,25
Note_Off,None,11,48,77,23
Note_On,None,11,48,74,25
Note_Off,None,11,48,74,23
Note_On,None,11,48,77,25
Note_Off,None,11,48,77,23
Note_On,None,11,48,74,25
Note_Off,None,11,48,74,23
Note_On,None,11,48,77,25
Note_Off,None,11,48,77,23
Note_On,None,11,48,74,25
Note_Off,None,11,48,74,23
Note_On,None,11,48,77,25
Note_Off,None,11,48,77,23
Note_On,None,11,48,74,25
Note_Off,None,11,48,74,23
Note_On,None,11,48,77,25
Note_Off,None,11,48,77,23
Note_On,None,11,48,74,25
Note_Off,None,11,48,74,23
Note_On,None,11,48,77,25
Note_Off,None,11,48,77,23
Note_On,None,11,48,74,25
Note_Off,None,11,48,74,23
Note_On,None,11,48,77,25
Note_Off,None,11,48,77,23
Note_On,None,11,48,74,25
Note_Off,None,11,48,74,23
Note_On,None,11,48,77,25
Note_Off,None,11,48,77,23
Note_On,None,11,48,74,25
Note_Off,None,11,48,74,23
Note_On,None,11,48,77,25
Note_Off,None,11,48,77,23
Note_On,None,11,48,74,25
Note_Off,None,11,48,74,23
Note_On,None,11,48,77,25
Note_Off,None,11,48,77,23
Note_On,None,11,48,74,25
Note_Off,None,11,48,74,23
Note_On,None,11,48,77,25
Note_Off,None,11,48,77,23
Note_On,None,11,48,74,25
Note_Off,None,11,48,74,23
Note_On,None,11,48,77,25
Note_Off,None,11,48,77,23
Note_On,None,11,48,74,25
Note_Off,None,11,48,74,23
Note_On,None,11,48,77,25
Note_Off,None,11,48,77,23
Note_On,None,11,48,74,25
Note_Off,None,11,48,74,23
Note_On,None,11,48,77,25
Note_Off,None,11,48,77,23
Note_On,None,11,48,74,25
Note_Off,None,11,48,74,23
Controller,None,11,101,0,769
Controller,None,11,100,0,0
Controller,None,11,6,12,0
Controller,None,11,10,96,0
Controller,None,11,7,127,0
Pitch_Bend,None,11,64,0,0
Program_Change,None,11,117,0,0
Controller,None,11,101,0,0
Controller,None,11,100,0,0
Controller,None,11,6,12,0
Controller,None,11,10,96,0
Controller,None,11,7,127,0
Pitch_Bend,None,11,64,0,0
Program_Change,None,11,117,0,0
Controller,None,11,101,0,0
Controller,None,11,100,0,0
Controller,None,11,6,12,0
Controller,None,11,10,96,0
Controller,None,11,7,127,0
Pitch_Bend,None,11,64,0,0
Program_Change,None,11,117,0,0
None,End_of_Track,0,0,0,0
