None,Sequence_Or_Track_Name,0,10,0,0
Controller,None,4,10,117,0
Controller,None,4,7,127,0
Pitch_Bend,None,4,64,0,0
Controller,None,4,101,0,0
Controller,None,4,100,0,0
Controller,None,4,6,12,0
Controller,None,4,10,117,0
Controller,None,4,7,127,0
Pitch_Bend,None,4,64,0,0
Program_Change,None,4,39,0,0
Controller,None,4,101,0,0
Controller,None,4,100,0,0
Controller,None,4,6,12,0
Controller,None,4,10,117,0
Controller,None,4,7,127,0
Pitch_Bend,None,4,64,0,0
Program_Change,None,4,39,0,0
Controller,None,4,7,127,0
Controller,None,4,10,117,0
Controller,None,4,101,0,0
Controller,None,4,100,0,0
Controller,None,4,6,12,0
Controller,None,4,10,117,0
Controller,None,4,7,127,0
Pitch_Bend,None,4,64,0,0
Program_Change,None,4,39,0,0
Controller,None,4,7,127,0
Controller,None,4,10,117,0
Note_On,None,4,39,110,0
Note_Off,None,4,39,110,23
Note_On,None,4,39,110,1
Note_Off,None,4,39,110,47
Note_On,None,4,39,110,1
Note_Off,None,4,39,110,23
Note_On,None,4,39,110,1
Note_Off,None,4,39,110,23
Note_On,None,4,39,110,1
Note_Off,None,4,39,110,47
Note_On,None,4,39,110,1
Note_Off,None,4,39,110,23
Note_On,None,4,39,110,1
Note_Off,None,4,39,110,23
Note_On,None,4,39,110,1
Note_Off,None,4,39,110,23
Note_On,None,4,39,110,1
Note_Off,None,4,39,110,23
Note_On,None,4,39,110,1
Note_Off,None,4,39,110,23
Note_On,None,4,39,110,1
Note_Off,None,4,39,110,23
Note_On,None,4,41,110,1
Note_Off,None,4,41,110,23
Note_On,None,4,43,110,1
Note_Off,None,4,43,110,23
Note_On,None,4,36,110,1
Note_Off,None,4,36,110,23
Note_On,None,4,43,110,1
Note_Off,None,4,43,110,23
Note_On,None,4,43,110,1
Note_Off,None,4,43,110,47
Note_On,None,4,43,110,1
Note_Off,None,4,43,110,23
Note_On,None,4,43,110,1
Note_Off,None,4,43,110,23
Note_On,None,4,43,110,1
Note_Off,None,4,43,110,47
Note_On,None,4,43,110,1
Note_Off,None,4,43,110,23
Note_On,None,4,43,110,1
Note_Off,None,4,43,110,23
Note_On,None,4,45,110,1
Note_Off,None,4,45,110,23
Note_On,None,4,46,110,1
Note_Off,None,4,46,110,23
Note_On,None,4,43,110,1
Note_Off,None,4,43,110,23
Note_On,None,4,38,110,1
Note_Off,None,4,38,110,23
Note_On,None,4,41,110,1
Note_Off,None,4,41,110,23
Note_On,None,4,36,110,1
Note_Off,None,4,36,110,23
Note_On,None,4,38,110,1
Note_Off,None,4,38,110,23
Note_On,None,4,36,110,1
Note_Off,None,4,36,110,23
Note_On,None,4,36,110,1
Note_Off,None,4,36,110,47
Note_On,None,4,36,110,1
Note_Off,None,4,36,110,23
Note_On,None,4,36,110,1
Note_Off,None,4,36,110,23
Note_On,None,4,36,110,1
Note_Off,None,4,36,110,47
Note_On,None,4,36,110,1
Note_Off,None,4,36,110,23
Note_On,None,4,36,110,1
Note_Off,None,4,36,110,23
Note_On,None,4,36,110,1
Note_Off,None,4,36,110,47
Note_On,None,4,36,110,1
Note_Off,None,4,36,110,23
Note_On,None,4,36,110,1
Note_Off,None,4,36,110,23
Note_On,None,4,36,110,1
Note_Off,None,4,36,110,47
Note_On,None,4,36,110,1
Note_Off,None,4,36,110,23
Note_On,None,4,34,110,1
Note_Off,None,4,34,110,23
Note_On,None,4,34,110,1
Note_Off,None,4,34,110,47
Note_On,None,4,34,110,1
Note_Off,None,4,34,110,23
Note_On,None,4,34,110,1
Note_Off,None,4,34,110,23
Note_On,None,4,34,110,1
Note_Off,None,4,34,110,47
Note_On,None,4,34,110,1
Note_Off,None,4,34,110,23
Note_On,None,4,34,110,1
Note_Off,None,4,34,110,23
Note_On,None,4,34,110,1
Note_Off,None,4,34,110,47
Note_On,None,4,34,110,1
Note_Off,None,4,34,110,23
Note_On,None,4,34,110,1
Note_Off,None,4,34,110,23
Note_On,None,4,46,110,1
Note_Off,None,4,46,110,23
Note_On,None,4,46,110,1
Note_Off,None,4,46,110,23
Note_On,None,4,46,110,1
Note_Off,None,4,46,110,23
Note_On,None,4,43,110,1
Note_Off,None,4,43,110,23
Note_On,None,4,43,110,1
Note_Off,None,4,43,110,47
Note_On,None,4,43,110,1
Note_Off,None,4,43,110,23
Note_On,None,4,43,110,1
Note_Off,None,4,43,110,23
Note_On,None,4,43,110,1
Note_Off,None,4,43,110,47
Note_On,None,4,43,110,1
Note_Off,None,4,43,110,23
Note_On,None,4,43,110,1
Note_Off,None,4,43,110,23
Note_On,None,4,43,110,1
Note_Off,None,4,43,110,47
Note_On,None,4,43,110,1
Note_Off,None,4,43,110,23
Note_On,None,4,43,110,1
Note_Off,None,4,43,110,23
Note_On,None,4,43,110,1
Note_Off,None,4,43,110,23
Note_On,None,4,43,110,1
Note_Off,None,4,43,110,23
Note_On,None,4,43,110,1
Note_Off,None,4,43,110,23
Note_On,None,4,41,110,1
Note_Off,None,4,41,110,23
Note_On,None,4,41,110,1
Note_Off,None,4,41,110,47
Note_On,None,4,41,110,1
Note_Off,None,4,41,110,23
Note_On,None,4,41,110,1
Note_Off,None,4,41,110,23
Note_On,None,4,41,110,1
Note_Off,None,4,41,110,47
Note_On,None,4,41,110,1
Note_Off,None,4,41,110,23
Note_On,None,4,41,110,1
Note_Off,None,4,41,110,23
Note_On,None,4,41,110,1
Note_Off,None,4,41,110,23
Note_On,None,4,48,110,1
Note_Off,None,4,48,110,23
Note_On,None,4,41,110,1
Note_Off,None,4,41,110,47
Note_On,None,4,41,110,1
Note_Off,None,4,41,110,47
Note_On,None,4,40,110,1
Note_Off,None,4,40,110,23
Note_On,None,4,39,110,1
Note_Off,None,4,39,110,23
Note_On,None,4,39,110,1
Note_Off,None,4,39,110,47
Note_On,None,4,39,110,1
Note_Off,None,4,39,110,23
Note_On,None,4,39,110,1
Note_Off,None,4,39,110,23
Note_On,None,4,39,110,1
Note_Off,None,4,39,110,47
Note_On,None,4,39,110,1
Note_Off,None,4,39,110,23
Note_On,None,4,39,110,1
Note_Off,None,4,39,110,23
Note_On,None,4,39,110,1
Note_Off,None,4,39,110,47
Note_On,None,4,39,110,1
Note_Off,None,4,39,110,23
Note_On,None,4,39,110,1
Note_Off,None,4,39,110,23
Note_On,None,4,39,110,1
Note_Off,None,4,39,110,47
Note_On,None,4,39,110,1
Note_Off,None,4,39,110,23
Note_On,None,4,41,110,1
Note_Off,None,4,41,110,23
Note_On,None,4,41,110,1
Note_Off,None,4,41,110,47
Note_On,None,4,41,110,1
Note_Off,None,4,41,110,23
Note_On,None,4,41,110,1
Note_Off,None,4,41,110,23
Note_On,None,4,41,110,1
Note_Off,None,4,41,110,47
Note_On,None,4,41,110,1
Note_Off,None,4,41,110,23
Note_On,None,4,41,110,1
Note_Off,None,4,41,110,23
Note_On,None,4,41,110,1
Note_Off,None,4,41,110,47
Note_On,None,4,41,110,1
Note_Off,None,4,41,110,23
Note_On,None,4,48,110,1
Note_Off,None,4,48,110,23
Note_On,None,4,41,110,1
Note_Off,None,4,41,110,23
Note_On,None,4,45,110,1
Note_Off,None,4,45,110,23
Note_On,None,4,39,110,1
Note_Off,None,4,39,110,23
Note_On,None,4,39,110,6529
Note_Off,None,4,39,110,23
Note_On,None,4,39,110,1
Note_Off,None,4,39,110,47
Note_On,None,4,39,110,1
Note_Off,None,4,39,110,23
Note_On,None,4,39,110,1
Note_Off,None,4,39,110,23
Note_On,None,4,39,110,1
Note_Off,None,4,39,110,47
Note_On,None,4,39,110,1
Note_Off,None,4,39,110,23
Note_On,None,4,39,110,1
Note_Off,None,4,39,110,23
Note_On,None,4,39,110,1
Note_Off,None,4,39,110,23
Note_On,None,4,39,110,1
Note_Off,None,4,39,110,23
Note_On,None,4,39,110,1
Note_Off,None,4,39,110,23
Note_On,None,4,39,110,1
Note_Off,None,4,39,110,23
Note_On,None,4,41,110,1
Note_Off,None,4,41,110,23
Note_On,None,4,43,110,1
Note_Off,None,4,43,110,23
Note_On,None,4,36,110,1
Note_Off,None,4,36,110,23
Note_On,None,4,43,110,1
Note_Off,None,4,43,110,23
Note_On,None,4,43,110,1
Note_Off,None,4,43,110,47
Note_On,None,4,43,110,1
Note_Off,None,4,43,110,23
Note_On,None,4,43,110,1
Note_Off,None,4,43,110,23
Note_On,None,4,43,110,1
Note_Off,None,4,43,110,47
Note_On,None,4,43,110,1
Note_Off,None,4,43,110,23
Note_On,None,4,43,110,1
Note_Off,None,4,43,110,23
Note_On,None,4,45,110,1
Note_Off,None,4,45,110,23
Note_On,None,4,46,110,1
Note_Off,None,4,46,110,23
Note_On,None,4,43,110,1
Note_Off,None,4,43,110,23
Note_On,None,4,38,110,1
Note_Off,None,4,38,110,23
Note_On,None,4,41,110,1
Note_Off,None,4,41,110,23
Note_On,None,4,36,110,1
Note_Off,None,4,36,110,23
Note_On,None,4,38,110,1
Note_Off,None,4,38,110,23
Note_On,None,4,36,110,1
Note_Off,None,4,36,110,23
Note_On,None,4,36,110,1
Note_Off,None,4,36,110,47
Note_On,None,4,36,110,1
Note_Off,None,4,36,110,23
Note_On,None,4,36,110,1
Note_Off,None,4,36,110,23
Note_On,None,4,36,110,1
Note_Off,None,4,36,110,47
Note_On,None,4,36,110,1
Note_Off,None,4,36,110,23
Note_On,None,4,36,110,1
Note_Off,None,4,36,110,23
Note_On,None,4,36,110,1
Note_Off,None,4,36,110,47
Note_On,None,4,36,110,1
Note_Off,None,4,36,110,23
Note_On,None,4,36,110,1
Note_Off,None,4,36,110,23
Note_On,None,4,36,110,1
Note_Off,None,4,36,110,47
Note_On,None,4,36,110,1
Note_Off,None,4,36,110,23
Note_On,None,4,34,110,1
Note_Off,None,4,34,110,23
Note_On,None,4,34,110,1
Note_Off,None,4,34,110,47
Note_On,None,4,34,110,1
Note_Off,None,4,34,110,23
Note_On,None,4,34,110,1
Note_Off,None,4,34,110,23
Note_On,None,4,34,110,1
Note_Off,None,4,34,110,47
Note_On,None,4,34,110,1
Note_Off,None,4,34,110,23
Note_On,None,4,34,110,1
Note_Off,None,4,34,110,23
Note_On,None,4,34,110,1
Note_Off,None,4,34,110,47
Note_On,None,4,34,110,1
Note_Off,None,4,34,110,23
Note_On,None,4,34,110,1
Note_Off,None,4,34,110,23
Note_On,None,4,46,110,1
Note_Off,None,4,46,110,23
Note_On,None,4,46,110,1
Note_Off,None,4,46,110,23
Note_On,None,4,46,110,1
Note_Off,None,4,46,110,23
Note_On,None,4,43,110,1
Note_Off,None,4,43,110,23
Note_On,None,4,43,110,1
Note_Off,None,4,43,110,47
Note_On,None,4,43,110,1
Note_Off,None,4,43,110,23
Note_On,None,4,43,110,1
Note_Off,None,4,43,110,23
Note_On,None,4,43,110,1
Note_Off,None,4,43,110,47
Note_On,None,4,43,110,1
Note_Off,None,4,43,110,23
Note_On,None,4,43,110,1
Note_Off,None,4,43,110,23
Note_On,None,4,43,110,1
Note_Off,None,4,43,110,47
Note_On,None,4,43,110,1
Note_Off,None,4,43,110,23
Note_On,None,4,43,110,1
Note_Off,None,4,43,110,23
Note_On,None,4,43,110,1
Note_Off,None,4,43,110,23
Note_On,None,4,43,110,1
Note_Off,None,4,43,110,23
Note_On,None,4,43,110,1
Note_Off,None,4,43,110,23
Note_On,None,4,41,110,1
Note_Off,None,4,41,110,23
Note_On,None,4,41,110,1
Note_Off,None,4,41,110,47
Note_On,None,4,41,110,1
Note_Off,None,4,41,110,23
Note_On,None,4,41,110,1
Note_Off,None,4,41,110,23
Note_On,None,4,41,110,1
Note_Off,None,4,41,110,47
Note_On,None,4,41,110,1
Note_Off,None,4,41,110,23
Note_On,None,4,41,110,1
Note_Off,None,4,41,110,23
Note_On,None,4,41,110,1
Note_Off,None,4,41,110,23
Note_On,None,4,48,110,1
Note_Off,None,4,48,110,23
Note_On,None,4,41,110,1
Note_Off,None,4,41,110,47
Note_On,None,4,41,110,1
Note_Off,None,4,41,110,47
Note_On,None,4,40,110,1
Note_Off,None,4,40,110,23
Note_On,None,4,39,110,1
Note_Off,None,4,39,110,23
Note_On,None,4,39,110,1
Note_Off,None,4,39,110,47
Note_On,None,4,39,110,1
Note_Off,None,4,39,110,23
Note_On,None,4,39,110,1
Note_Off,None,4,39,110,23
Note_On,None,4,39,110,1
Note_Off,None,4,39,110,47
Note_On,None,4,39,110,1
Note_Off,None,4,39,110,23
Note_On,None,4,39,110,1
Note_Off,None,4,39,110,23
Note_On,None,4,39,110,1
Note_Off,None,4,39,110,47
Note_On,None,4,39,110,1
Note_Off,None,4,39,110,23
Note_On,None,4,39,110,1
Note_Off,None,4,39,110,23
Note_On,None,4,39,110,1
Note_Off,None,4,39,110,47
Note_On,None,4,39,110,1
Note_Off,None,4,39,110,23
Note_On,None,4,41,110,1
Note_Off,None,4,41,110,23
Note_On,None,4,41,110,1
Note_Off,None,4,41,110,47
Note_On,None,4,41,110,1
Note_Off,None,4,41,110,23
Note_On,None,4,41,110,1
Note_Off,None,4,41,110,23
Note_On,None,4,41,110,1
Note_Off,None,4,41,110,47
Note_On,None,4,41,110,1
Note_Off,None,4,41,110,23
Note_On,None,4,41,110,1
Note_Off,None,4,41,110,23
Note_On,None,4,41,110,1
Note_Off,None,4,41,110,47
Note_On,None,4,41,110,1
Note_Off,None,4,41,110,23
Note_On,None,4,48,110,1
Note_Off,None,4,48,110,23
Note_On,None,4,41,110,1
Note_Off,None,4,41,110,23
Note_On,None,4,45,110,1
Note_Off,None,4,45,110,23
Note_On,None,4,39,110,1
Note_Off,None,4,39,110,23
Note_On,None,4,39,110,6913
Note_Off,None,4,39,110,23
Note_On,None,4,39,110,1
Note_Off,None,4,39,110,47
Note_On,None,4,39,110,1
Note_Off,None,4,39,110,23
Note_On,None,4,39,110,1
Note_Off,None,4,39,110,23
Note_On,None,4,39,110,1
Note_Off,None,4,39,110,47
Note_On,None,4,39,110,1
Note_Off,None,4,39,110,23
Note_On,None,4,39,110,1
Note_Off,None,4,39,110,23
Note_On,None,4,39,110,1
Note_Off,None,4,39,110,23
Note_On,None,4,39,110,1
Note_Off,None,4,39,110,23
Note_On,None,4,39,110,1
Note_Off,None,4,39,110,23
Note_On,None,4,39,110,1
Note_Off,None,4,39,110,23
Note_On,None,4,41,110,1
Note_Off,None,4,41,110,23
Note_On,None,4,43,110,1
Note_Off,None,4,43,110,23
Note_On,None,4,36,110,1
Note_Off,None,4,36,110,23
Note_On,None,4,43,110,1
Note_Off,None,4,43,110,23
Note_On,None,4,43,110,1
Note_Off,None,4,43,110,47
Note_On,None,4,43,110,1
Note_Off,None,4,43,110,23
Note_On,None,4,43,110,1
Note_Off,None,4,43,110,23
Note_On,None,4,43,110,1
Note_Off,None,4,43,110,47
Note_On,None,4,43,110,1
Note_Off,None,4,43,110,23
Note_On,None,4,43,110,1
Note_Off,None,4,43,110,23
Note_On,None,4,45,110,1
Note_Off,None,4,45,110,23
Note_On,None,4,46,110,1
Note_Off,None,4,46,110,23
Note_On,None,4,43,110,1
Note_Off,None,4,43,110,23
Note_On,None,4,38,110,1
Note_Off,None,4,38,110,23
Note_On,None,4,41,110,1
Note_Off,None,4,41,110,23
Note_On,None,4,36,110,1
Note_Off,None,4,36,110,23
Note_On,None,4,38,110,1
Note_Off,None,4,38,110,23
Note_On,None,4,36,110,1
Note_Off,None,4,36,110,23
Note_On,None,4,36,110,1
Note_Off,None,4,36,110,47
Note_On,None,4,36,110,1
Note_Off,None,4,36,110,23
Note_On,None,4,36,110,1
Note_Off,None,4,36,110,23
Note_On,None,4,36,110,1
Note_Off,None,4,36,110,47
Note_On,None,4,36,110,1
Note_Off,None,4,36,110,23
Note_On,None,4,36,110,1
Note_Off,None,4,36,110,23
Note_On,None,4,36,110,1
Note_Off,None,4,36,110,47
Note_On,None,4,36,110,1
Note_Off,None,4,36,110,23
Note_On,None,4,36,110,1
Note_Off,None,4,36,110,23
Note_On,None,4,36,110,1
Note_Off,None,4,36,110,47
Note_On,None,4,36,110,1
Note_Off,None,4,36,110,23
Note_On,None,4,34,110,1
Note_Off,None,4,34,110,23
Note_On,None,4,34,110,1
Note_Off,None,4,34,110,47
Note_On,None,4,34,110,1
Note_Off,None,4,34,110,23
Note_On,None,4,34,110,1
Note_Off,None,4,34,110,23
Note_On,None,4,34,110,1
Note_Off,None,4,34,110,47
Note_On,None,4,34,110,1
Note_Off,None,4,34,110,23
Note_On,None,4,34,110,1
Note_Off,None,4,34,110,23
Note_On,None,4,34,110,1
Note_Off,None,4,34,110,47
Note_On,None,4,34,110,1
Note_Off,None,4,34,110,23
Note_On,None,4,34,110,1
Note_Off,None,4,34,110,23
Note_On,None,4,46,110,1
Note_Off,None,4,46,110,23
Note_On,None,4,46,110,1
Note_Off,None,4,46,110,23
Note_On,None,4,46,110,1
Note_Off,None,4,46,110,23
Note_On,None,4,43,110,1
Note_Off,None,4,43,110,23
Note_On,None,4,43,110,1
Note_Off,None,4,43,110,47
Note_On,None,4,43,110,1
Note_Off,None,4,43,110,23
Note_On,None,4,43,110,1
Note_Off,None,4,43,110,23
Note_On,None,4,43,110,1
Note_Off,None,4,43,110,47
Note_On,None,4,43,110,1
Note_Off,None,4,43,110,23
Note_On,None,4,43,110,1
Note_Off,None,4,43,110,23
Note_On,None,4,43,110,1
Note_Off,None,4,43,110,47
Note_On,None,4,43,110,1
Note_Off,None,4,43,110,23
Note_On,None,4,43,110,1
Note_Off,None,4,43,110,23
Note_On,None,4,43,110,1
Note_Off,None,4,43,110,23
Note_On,None,4,43,110,1
Note_Off,None,4,43,110,23
Note_On,None,4,43,110,1
Note_Off,None,4,43,110,23
Note_On,None,4,41,110,1
Note_Off,None,4,41,110,23
Note_On,None,4,41,110,1
Note_Off,None,4,41,110,47
Note_On,None,4,41,110,1
Note_Off,None,4,41,110,23
Note_On,None,4,41,110,1
Note_Off,None,4,41,110,23
Note_On,None,4,41,110,1
Note_Off,None,4,41,110,47
Note_On,None,4,41,110,1
Note_Off,None,4,41,110,23
Note_On,None,4,41,110,1
Note_Off,None,4,41,110,23
Note_On,None,4,41,110,1
Note_Off,None,4,41,110,23
Note_On,None,4,48,110,1
Note_Off,None,4,48,110,23
Note_On,None,4,41,110,1
Note_Off,None,4,41,110,47
Note_On,None,4,41,110,1
Note_Off,None,4,41,110,47
Note_On,None,4,40,110,1
Note_Off,None,4,40,110,23
Note_On,None,4,39,110,1
Note_Off,None,4,39,110,23
Note_On,None,4,39,110,1
Note_Off,None,4,39,110,47
Note_On,None,4,39,110,1
Note_Off,None,4,39,110,23
Note_On,None,4,39,110,1
Note_Off,None,4,39,110,23
Note_On,None,4,39,110,1
Note_Off,None,4,39,110,47
Note_On,None,4,39,110,1
Note_Off,None,4,39,110,23
Note_On,None,4,39,110,1
Note_Off,None,4,39,110,23
Note_On,None,4,39,110,1
Note_Off,None,4,39,110,47
Note_On,None,4,39,110,1
Note_Off,None,4,39,110,23
Note_On,None,4,39,110,1
Note_Off,None,4,39,110,23
Note_On,None,4,39,110,1
Note_Off,None,4,39,110,47
Note_On,None,4,39,110,1
Note_Off,None,4,39,110,23
Note_On,None,4,41,110,1
Note_Off,None,4,41,110,23
Note_On,None,4,41,110,1
Note_Off,None,4,41,110,47
Note_On,None,4,41,110,1
Note_Off,None,4,41,110,23
Note_On,None,4,41,110,1
Note_Off,None,4,41,110,23
Note_On,None,4,41,110,1
Note_Off,None,4,41,110,47
Note_On,None,4,41,110,1
Note_Off,None,4,41,110,23
Note_On,None,4,41,110,1
Note_Off,None,4,41,110,23
Note_On,None,4,41,110,1
Note_Off,None,4,41,110,47
Note_On,None,4,41,110,1
Note_Off,None,4,41,110,23
Note_On,None,4,48,110,1
Note_Off,None,4,48,110,23
Note_On,None,4,41,110,1
Note_Off,None,4,41,110,23
Note_On,None,4,45,110,1
Note_Off,None,4,45,110,23
Note_On,None,4,39,110,1
Note_Off,None,4,39,110,23
Note_On,None,4,39,110,1
Note_Off,None,4,39,110,23
Note_On,None,4,39,110,1
Note_Off,None,4,39,110,47
Note_On,None,4,39,110,1
Note_Off,None,4,39,110,23
Note_On,None,4,39,110,1
Note_Off,None,4,39,110,23
Note_On,None,4,39,110,1
Note_Off,None,4,39,110,47
Note_On,None,4,39,110,1
Note_Off,None,4,39,110,23
Note_On,None,4,39,110,1
Note_Off,None,4,39,110,23
Note_On,None,4,39,110,1
Note_Off,None,4,39,110,23
Note_On,None,4,39,110,1
Note_Off,None,4,39,110,23
Note_On,None,4,39,110,1
Note_Off,None,4,39,110,23
Note_On,None,4,39,110,1
Note_Off,None,4,39,110,23
Note_On,None,4,41,110,1
Note_Off,None,4,41,110,23
Note_On,None,4,43,110,1
Note_Off,None,4,43,110,23
Note_On,None,4,36,110,1
Note_Off,None,4,36,110,23
Note_On,None,4,43,110,1
Note_Off,None,4,43,110,23
Note_On,None,4,43,110,1
Note_Off,None,4,43,110,47
Note_On,None,4,43,110,1
Note_Off,None,4,43,110,23
Note_On,None,4,43,110,1
Note_Off,None,4,43,110,23
Note_On,None,4,43,110,1
Note_Off,None,4,43,110,47
Note_On,None,4,43,110,1
Note_Off,None,4,43,110,23
Note_On,None,4,43,110,1
Note_Off,None,4,43,110,23
Note_On,None,4,45,110,1
Note_Off,None,4,45,110,23
Note_On,None,4,46,110,1
Note_Off,None,4,46,110,23
Note_On,None,4,43,110,1
Note_Off,None,4,43,110,23
Note_On,None,4,38,110,1
Note_Off,None,4,38,110,23
Note_On,None,4,41,110,1
Note_Off,None,4,41,110,23
Note_On,None,4,36,110,1
Note_Off,None,4,36,110,23
Note_On,None,4,38,110,1
Note_Off,None,4,38,110,23
Note_On,None,4,36,110,1
Note_Off,None,4,36,110,23
Note_On,None,4,36,110,1
Note_Off,None,4,36,110,47
Note_On,None,4,36,110,1
Note_Off,None,4,36,110,23
Note_On,None,4,36,110,1
Note_Off,None,4,36,110,23
Note_On,None,4,36,110,1
Note_Off,None,4,36,110,47
Note_On,None,4,36,110,1
Note_Off,None,4,36,110,23
Note_On,None,4,36,110,1
Note_Off,None,4,36,110,23
Note_On,None,4,36,110,1
Note_Off,None,4,36,110,47
Note_On,None,4,36,110,1
Note_Off,None,4,36,110,23
Note_On,None,4,36,110,1
Note_Off,None,4,36,110,23
Note_On,None,4,36,110,1
Note_Off,None,4,36,110,47
Note_On,None,4,36,110,1
Note_Off,None,4,36,110,23
Note_On,None,4,34,110,1
Note_Off,None,4,34,110,23
Note_On,None,4,34,110,1
Note_Off,None,4,34,110,47
Note_On,None,4,34,110,1
Note_Off,None,4,34,110,23
Note_On,None,4,34,110,1
Note_Off,None,4,34,110,23
Note_On,None,4,34,110,1
Note_Off,None,4,34,110,47
Note_On,None,4,34,110,1
Note_Off,None,4,34,110,23
Note_On,None,4,34,110,1
Note_Off,None,4,34,110,23
Note_On,None,4,34,110,1
Note_Off,None,4,34,110,47
Note_On,None,4,34,110,1
Note_Off,None,4,34,110,23
Note_On,None,4,34,110,1
Note_Off,None,4,34,110,23
Note_On,None,4,46,110,1
Note_Off,None,4,46,110,23
Note_On,None,4,46,110,1
Note_Off,None,4,46,110,23
Note_On,None,4,46,110,1
Note_Off,None,4,46,110,23
Note_On,None,4,43,110,1
Note_Off,None,4,43,110,23
Note_On,None,4,43,110,1
Note_Off,None,4,43,110,47
Note_On,None,4,43,110,1
Note_Off,None,4,43,110,23
Note_On,None,4,43,110,1
Note_Off,None,4,43,110,23
Note_On,None,4,43,110,1
Note_Off,None,4,43,110,47
Note_On,None,4,43,110,1
Note_Off,None,4,43,110,23
Note_On,None,4,43,110,1
Note_Off,None,4,43,110,23
Note_On,None,4,43,110,1
Note_Off,None,4,43,110,47
Note_On,None,4,43,110,1
Note_Off,None,4,43,110,23
Note_On,None,4,43,110,1
Note_Off,None,4,43,110,23
Note_On,None,4,43,110,1
Note_Off,None,4,43,110,23
Note_On,None,4,43,110,1
Note_Off,None,4,43,110,23
Note_On,None,4,43,110,1
Note_Off,None,4,43,110,23
Note_On,None,4,41,110,1
Note_Off,None,4,41,110,23
Note_On,None,4,41,110,1
Note_Off,None,4,41,110,47
Note_On,None,4,41,110,1
Note_Off,None,4,41,110,23
Note_On,None,4,41,110,1
Note_Off,None,4,41,110,23
Note_On,None,4,41,110,1
Note_Off,None,4,41,110,47
Note_On,None,4,41,110,1
Note_Off,None,4,41,110,23
Note_On,None,4,41,110,1
Note_Off,None,4,41,110,23
Note_On,None,4,41,110,1
Note_Off,None,4,41,110,23
Note_On,None,4,48,110,1
Note_Off,None,4,48,110,23
Note_On,None,4,41,110,1
Note_Off,None,4,41,110,47
Note_On,None,4,41,110,1
Note_Off,None,4,41,110,47
Note_On,None,4,40,110,1
Note_Off,None,4,40,110,23
Note_On,None,4,39,110,1
Note_Off,None,4,39,110,23
Note_On,None,4,39,110,1
Note_Off,None,4,39,110,47
Note_On,None,4,39,110,1
Note_Off,None,4,39,110,23
Note_On,None,4,39,110,1
Note_Off,None,4,39,110,23
Note_On,None,4,39,110,1
Note_Off,None,4,39,110,47
Note_On,None,4,39,110,1
Note_Off,None,4,39,110,23
Note_On,None,4,39,110,1
Note_Off,None,4,39,110,23
Note_On,None,4,39,110,1
Note_Off,None,4,39,110,47
Note_On,None,4,39,110,1
Note_Off,None,4,39,110,23
Note_On,None,4,39,110,1
Note_Off,None,4,39,110,23
Note_On,None,4,39,110,1
Note_Off,None,4,39,110,47
Note_On,None,4,39,110,1
Note_Off,None,4,39,110,23
Note_On,None,4,41,110,1
Note_Off,None,4,41,110,23
Note_On,None,4,41,110,1
Note_Off,None,4,41,110,47
Note_On,None,4,41,110,1
Note_Off,None,4,41,110,23
Note_On,None,4,41,110,1
Note_Off,None,4,41,110,23
Note_On,None,4,41,110,1
Note_Off,None,4,41,110,47
Note_On,None,4,41,110,1
Note_Off,None,4,41,110,23
Note_On,None,4,41,110,1
Note_Off,None,4,41,110,23
Note_On,None,4,41,110,1
Note_Off,None,4,41,110,47
Note_On,None,4,41,110,1
Note_Off,None,4,41,110,23
Note_On,None,4,48,110,1
Note_Off,None,4,48,110,23
Note_On,None,4,41,110,1
Note_Off,None,4,41,110,23
Note_On,None,4,45,110,1
Note_Off,None,4,45,110,23
Note_On,None,4,39,110,1
Note_Off,None,4,39,110,23
Note_On,None,4,39,110,1
Note_Off,None,4,39,110,23
Note_On,None,4,39,110,1
Note_Off,None,4,39,110,47
Note_On,None,4,39,110,1
Note_Off,None,4,39,110,23
Note_On,None,4,39,110,1
Note_Off,None,4,39,110,23
Note_On,None,4,39,110,1
Note_Off,None,4,39,110,47
Note_On,None,4,39,110,1
Note_Off,None,4,39,110,23
Note_On,None,4,39,110,1
Note_Off,None,4,39,110,23
Note_On,None,4,39,110,1
Note_Off,None,4,39,110,23
Note_On,None,4,39,110,1
Note_Off,None,4,39,110,23
Note_On,None,4,39,110,1
Note_Off,None,4,39,110,23
Note_On,None,4,39,110,1
Note_Off,None,4,39,110,23
Note_On,None,4,41,110,1
Note_Off,None,4,41,110,23
Note_On,None,4,43,110,1
Note_Off,None,4,43,110,23
Note_On,None,4,36,110,1
Note_Off,None,4,36,110,23
Note_On,None,4,43,110,1
Note_Off,None,4,43,110,23
Note_On,None,4,43,110,1
Note_Off,None,4,43,110,47
Note_On,None,4,43,110,1
Note_Off,None,4,43,110,23
Note_On,None,4,43,110,1
Note_Off,None,4,43,110,23
Note_On,None,4,43,110,1
Note_Off,None,4,43,110,47
Note_On,None,4,43,110,1
Note_Off,None,4,43,110,23
Note_On,None,4,43,110,1
Note_Off,None,4,43,110,23
Note_On,None,4,45,110,1
Note_Off,None,4,45,110,23
Note_On,None,4,46,110,1
Note_Off,None,4,46,110,23
Note_On,None,4,43,110,1
Note_Off,None,4,43,110,23
Note_On,None,4,38,110,1
Note_Off,None,4,38,110,23
Note_On,None,4,41,110,1
Note_Off,None,4,41,110,23
Note_On,None,4,36,110,1
Note_Off,None,4,36,110,23
Note_On,None,4,38,110,1
Note_Off,None,4,38,110,23
Note_On,None,4,36,110,1
Note_Off,None,4,36,110,23
Note_On,None,4,36,110,1
Note_Off,None,4,36,110,47
Note_On,None,4,36,110,1
Note_Off,None,4,36,110,23
Note_On,None,4,36,110,1
Note_Off,None,4,36,110,23
Note_On,None,4,36,110,1
Note_Off,None,4,36,110,47
Note_On,None,4,36,110,1
Note_Off,None,4,36,110,23
Note_On,None,4,36,110,1
Note_Off,None,4,36,110,23
Note_On,None,4,36,110,1
Note_Off,None,4,36,110,47
Note_On,None,4,36,110,1
Note_Off,None,4,36,110,23
Note_On,None,4,36,110,1
Note_Off,None,4,36,110,23
Note_On,None,4,36,110,1
Note_Off,None,4,36,110,47
Note_On,None,4,36,110,1
Note_Off,None,4,36,110,23
Note_On,None,4,34,110,1
Note_Off,None,4,34,110,23
Note_On,None,4,34,110,1
Note_Off,None,4,34,110,47
Note_On,None,4,34,110,1
Note_Off,None,4,34,110,23
Note_On,None,4,34,110,1
Note_Off,None,4,34,110,23
Note_On,None,4,34,110,1
Note_Off,None,4,34,110,47
Note_On,None,4,34,110,1
Note_Off,None,4,34,110,23
Note_On,None,4,34,110,1
Note_Off,None,4,34,110,23
Note_On,None,4,34,110,1
Note_Off,None,4,34,110,47
Note_On,None,4,34,110,1
Note_Off,None,4,34,110,23
Note_On,None,4,34,110,1
Note_Off,None,4,34,110,23
Note_On,None,4,46,110,1
Note_Off,None,4,46,110,23
Note_On,None,4,46,110,1
Note_Off,None,4,46,110,23
Note_On,None,4,46,110,1
Note_Off,None,4,46,110,23
Note_On,None,4,43,110,1
Note_Off,None,4,43,110,23
Note_On,None,4,43,110,1
Note_Off,None,4,43,110,47
Note_On,None,4,43,110,1
Note_Off,None,4,43,110,23
Note_On,None,4,43,110,1
Note_Off,None,4,43,110,23
Note_On,None,4,43,110,1
Note_Off,None,4,43,110,47
Note_On,None,4,43,110,1
Note_Off,None,4,43,110,23
Note_On,None,4,43,110,1
Note_Off,None,4,43,110,23
Note_On,None,4,43,110,1
Note_Off,None,4,43,110,47
Note_On,None,4,43,110,1
Note_Off,None,4,43,110,23
Note_On,None,4,43,110,1
Note_Off,None,4,43,110,23
Note_On,None,4,43,110,1
Note_Off,None,4,43,110,23
Note_On,None,4,43,110,1
Note_Off,None,4,43,110,23
Note_On,None,4,43,110,1
Note_Off,None,4,43,110,23
Note_On,None,4,41,110,1
Note_Off,None,4,41,110,23
Note_On,None,4,41,110,1
Note_Off,None,4,41,110,47
Note_On,None,4,41,110,1
Note_Off,None,4,41,110,23
Note_On,None,4,41,110,1
Note_Off,None,4,41,110,23
Note_On,None,4,41,110,1
Note_Off,None,4,41,110,47
Note_On,None,4,41,110,1
Note_Off,None,4,41,110,23
Note_On,None,4,41,110,1
Note_Off,None,4,41,110,23
Note_On,None,4,41,110,1
Note_Off,None,4,41,110,23
Note_On,None,4,48,110,1
Note_Off,None,4,48,110,23
Note_On,None,4,41,110,1
Note_Off,None,4,41,110,47
Note_On,None,4,41,110,1
Note_Off,None,4,41,110,47
Note_On,None,4,40,110,1
Note_Off,None,4,40,110,23
Note_On,None,4,39,110,1
Note_Off,None,4,39,110,23
Note_On,None,4,39,110,1
Note_Off,None,4,39,110,47
Note_On,None,4,39,110,1
Note_Off,None,4,39,110,23
Note_On,None,4,39,110,1
Note_Off,None,4,39,110,23
Note_On,None,4,39,110,1
Note_Off,None,4,39,110,47
Note_On,None,4,39,110,1
Note_Off,None,4,39,110,23
Note_On,None,4,39,110,1
Note_Off,None,4,39,110,23
Note_On,None,4,39,110,1
Note_Off,None,4,39,110,47
Note_On,None,4,39,110,1
Note_Off,None,4,39,110,23
Note_On,None,4,39,110,1
Note_Off,None,4,39,110,23
Note_On,None,4,39,110,1
Note_Off,None,4,39,110,47
Note_On,None,4,39,110,1
Note_Off,None,4,39,110,23
Note_On,None,4,41,110,1
Note_Off,None,4,41,110,23
Note_On,None,4,41,110,1
Note_Off,None,4,41,110,47
Note_On,None,4,41,110,1
Note_Off,None,4,41,110,23
Note_On,None,4,41,110,1
Note_Off,None,4,41,110,23
Note_On,None,4,41,110,1
Note_Off,None,4,41,110,47
Note_On,None,4,41,110,1
Note_Off,None,4,41,110,23
Note_On,None,4,41,110,1
Note_Off,None,4,41,110,23
Note_On,None,4,41,110,1
Note_Off,None,4,41,110,47
Note_On,None,4,41,110,1
Note_Off,None,4,41,110,23
Note_On,None,4,48,110,1
Note_Off,None,4,48,110,23
Note_On,None,4,41,110,1
Note_Off,None,4,41,110,23
Note_On,None,4,45,110,1
Note_Off,None,4,45,110,23
Note_On,None,4,39,110,1
Note_Off,None,4,39,110,23
Note_On,None,4,39,110,1
Note_Off,None,4,39,110,23
Note_On,None,4,39,110,1
Note_Off,None,4,39,110,47
Note_On,None,4,39,110,1
Note_Off,None,4,39,110,23
Note_On,None,4,39,110,1
Note_Off,None,4,39,110,23
Note_On,None,4,39,110,1
Note_Off,None,4,39,110,47
Note_On,None,4,39,110,1
Note_Off,None,4,39,110,23
Note_On,None,4,39,110,1
Note_Off,None,4,39,110,23
Note_On,None,4,39,110,1
Note_Off,None,4,39,110,23
Note_On,None,4,39,110,1
Note_Off,None,4,39,110,23
Note_On,None,4,39,110,1
Note_Off,None,4,39,110,23
Note_On,None,4,39,110,1
Note_Off,None,4,39,110,23
Note_On,None,4,41,110,1
Note_Off,None,4,41,110,23
Note_On,None,4,43,110,1
Note_Off,None,4,43,110,23
Note_On,None,4,36,110,1
Note_Off,None,4,36,110,23
Note_On,None,4,43,110,1
Note_Off,None,4,43,110,23
Note_On,None,4,43,110,1
Note_Off,None,4,43,110,47
Note_On,None,4,43,110,1
Note_Off,None,4,43,110,23
Note_On,None,4,43,110,1
Note_Off,None,4,43,110,23
Note_On,None,4,43,110,1
Note_Off,None,4,43,110,47
Note_On,None,4,43,110,1
Note_Off,None,4,43,110,23
Note_On,None,4,43,110,1
Note_Off,None,4,43,110,23
Note_On,None,4,45,110,1
Note_Off,None,4,45,110,23
Note_On,None,4,46,110,1
Note_Off,None,4,46,110,23
Note_On,None,4,43,110,1
Note_Off,None,4,43,110,23
Note_On,None,4,38,110,1
Note_Off,None,4,38,110,23
Note_On,None,4,41,110,1
Note_Off,None,4,41,110,23
Note_On,None,4,36,110,1
Note_Off,None,4,36,110,23
Note_On,None,4,38,110,1
Note_Off,None,4,38,110,23
Note_On,None,4,36,110,1
Note_Off,None,4,36,110,23
Note_On,None,4,36,110,1
Note_Off,None,4,36,110,47
Note_On,None,4,36,110,1
Note_Off,None,4,36,110,23
Note_On,None,4,36,110,1
Note_Off,None,4,36,110,23
Note_On,None,4,36,110,1
Note_Off,None,4,36,110,47
Note_On,None,4,36,110,1
Note_Off,None,4,36,110,23
Note_On,None,4,36,110,1
Note_Off,None,4,36,110,23
Note_On,None,4,36,110,1
Note_Off,None,4,36,110,47
Note_On,None,4,36,110,1
Note_Off,None,4,36,110,23
Note_On,None,4,36,110,1
Note_Off,None,4,36,110,23
Note_On,None,4,36,110,1
Note_Off,None,4,36,110,47
Note_On,None,4,36,110,1
Note_Off,None,4,36,110,23
Note_On,None,4,34,110,1
Note_Off,None,4,34,110,23
Note_On,None,4,34,110,1
Note_Off,None,4,34,110,47
Note_On,None,4,34,110,1
Note_Off,None,4,34,110,23
Note_On,None,4,34,110,1
Note_Off,None,4,34,110,23
Note_On,None,4,34,110,1
Note_Off,None,4,34,110,47
Note_On,None,4,34,110,1
Note_Off,None,4,34,110,23
Note_On,None,4,34,110,1
Note_Off,None,4,34,110,23
Note_On,None,4,34,110,1
Note_Off,None,4,34,110,47
Note_On,None,4,34,110,1
Note_Off,None,4,34,110,23
Note_On,None,4,34,110,1
Note_Off,None,4,34,110,23
Note_On,None,4,46,110,1
Note_Off,None,4,46,110,23
Note_On,None,4,46,110,1
Note_Off,None,4,46,110,23
Note_On,None,4,46,110,1
Note_Off,None,4,46,110,23
Note_On,None,4,43,110,1
Note_Off,None,4,43,110,23
Note_On,None,4,43,110,1
Note_Off,None,4,43,110,47
Note_On,None,4,43,110,1
Note_Off,None,4,43,110,23
Note_On,None,4,43,110,1
Note_Off,None,4,43,110,23
Note_On,None,4,43,110,1
Note_Off,None,4,43,110,47
Note_On,None,4,43,110,1
Note_Off,None,4,43,110,23
Note_On,None,4,43,110,1
Note_Off,None,4,43,110,23
Note_On,None,4,43,110,1
Note_Off,None,4,43,110,47
Note_On,None,4,43,110,1
Note_Off,None,4,43,110,23
Note_On,None,4,43,110,1
Note_Off,None,4,43,110,23
Note_On,None,4,43,110,1
Note_Off,None,4,43,110,23
Note_On,None,4,43,110,1
Note_Off,None,4,43,110,23
Note_On,None,4,43,110,1
Note_Off,None,4,43,110,23
Note_On,None,4,41,110,1
Note_Off,None,4,41,110,23
Note_On,None,4,41,110,1
Note_Off,None,4,41,110,47
Note_On,None,4,41,110,1
Note_Off,None,4,41,110,23
Note_On,None,4,41,110,1
Note_Off,None,4,41,110,23
Note_On,None,4,41,110,1
Note_Off,None,4,41,110,47
Note_On,None,4,41,110,1
Note_Off,None,4,41,110,23
Note_On,None,4,41,110,1
Note_Off,None,4,41,110,23
Note_On,None,4,41,110,1
Note_Off,None,4,41,110,23
Note_On,None,4,48,110,1
Note_Off,None,4,48,110,23
Note_On,None,4,41,110,1
Note_Off,None,4,41,110,47
Note_On,None,4,41,110,1
Note_Off,None,4,41,110,47
Note_On,None,4,40,110,1
Note_Off,None,4,40,110,23
Note_On,None,4,39,110,1
Note_Off,None,4,39,110,23
Note_On,None,4,39,110,1
Note_Off,None,4,39,110,47
Note_On,None,4,39,110,1
Note_Off,None,4,39,110,23
Note_On,None,4,39,110,1
Note_Off,None,4,39,110,23
Note_On,None,4,39,110,1
Note_Off,None,4,39,110,47
Note_On,None,4,39,110,1
Note_Off,None,4,39,110,23
Note_On,None,4,39,110,1
Note_Off,None,4,39,110,23
Note_On,None,4,39,110,1
Note_Off,None,4,39,110,47
Note_On,None,4,39,110,1
Note_Off,None,4,39,110,23
Note_On,None,4,39,110,1
Note_Off,None,4,39,110,23
Note_On,None,4,39,110,1
Note_Off,None,4,39,110,47
Note_On,None,4,39,110,1
Note_Off,None,4,39,110,23
Note_On,None,4,41,110,1
Note_Off,None,4,41,110,23
Note_On,None,4,41,110,1
Note_Off,None,4,41,110,47
Note_On,None,4,41,110,1
Note_Off,None,4,41,110,23
Note_On,None,4,41,110,1
Note_Off,None,4,41,110,23
Note_On,None,4,41,110,1
Note_Off,None,4,41,110,47
Note_On,None,4,41,110,1
Note_Off,None,4,41,110,23
Note_On,None,4,41,110,1
Note_Off,None,4,41,110,23
Note_On,None,4,41,110,1
Note_Off,None,4,41,110,47
Note_On,None,4,41,110,1
Note_Off,None,4,41,110,23
Note_On,None,4,48,110,1
Note_Off,None,4,48,110,23
Note_On,None,4,41,110,1
Note_Off,None,4,41,110,23
Note_On,None,4,45,110,1
Note_Off,None,4,45,110,23
Note_On,None,4,39,110,1
Note_Off,None,4,39,110,23
Note_On,None,4,39,110,1
Note_Off,None,4,39,110,23
Note_On,None,4,39,110,1
Note_Off,None,4,39,110,47
Note_On,None,4,39,110,1
Note_Off,None,4,39,110,23
Note_On,None,4,39,110,1
Note_Off,None,4,39,110,23
Note_On,None,4,39,110,1
Note_Off,None,4,39,110,47
Note_On,None,4,39,110,1
Note_Off,None,4,39,110,23
Note_On,None,4,39,110,1
Note_Off,None,4,39,110,23
Note_On,None,4,39,110,1
Note_Off,None,4,39,110,23
Note_On,None,4,39,110,1
Note_Off,None,4,39,110,23
Note_On,None,4,39,110,1
Note_Off,None,4,39,110,23
Note_On,None,4,39,110,1
Note_Off,None,4,39,110,23
Note_On,None,4,41,110,1
Note_Off,None,4,41,110,23
Note_On,None,4,43,110,1
Note_Off,None,4,43,110,23
Note_On,None,4,36,110,1
Note_Off,None,4,36,110,23
Note_On,None,4,43,110,1
Note_Off,None,4,43,110,23
Note_On,None,4,43,110,1
Note_Off,None,4,43,110,47
Note_On,None,4,43,110,1
Note_Off,None,4,43,110,23
Note_On,None,4,43,110,1
Note_Off,None,4,43,110,23
Note_On,None,4,43,110,1
Note_Off,None,4,43,110,47
Note_On,None,4,43,110,1
Note_Off,None,4,43,110,23
Note_On,None,4,43,110,1
Note_Off,None,4,43,110,23
Note_On,None,4,45,110,1
Note_Off,None,4,45,110,23
Note_On,None,4,46,110,1
Note_Off,None,4,46,110,23
Note_On,None,4,43,110,1
Note_Off,None,4,43,110,23
Note_On,None,4,38,110,1
Note_Off,None,4,38,110,23
Note_On,None,4,41,110,1
Note_Off,None,4,41,110,23
Note_On,None,4,36,110,1
Note_Off,None,4,36,110,23
Note_On,None,4,38,110,1
Note_Off,None,4,38,110,23
Note_On,None,4,36,110,1
Note_Off,None,4,36,110,23
Note_On,None,4,36,110,1
Note_Off,None,4,36,110,47
Note_On,None,4,36,110,1
Note_Off,None,4,36,110,23
Note_On,None,4,36,110,1
Note_Off,None,4,36,110,23
Note_On,None,4,36,110,1
Note_Off,None,4,36,110,47
Note_On,None,4,36,110,1
Note_Off,None,4,36,110,23
Note_On,None,4,36,110,1
Note_Off,None,4,36,110,23
Note_On,None,4,36,110,1
Note_Off,None,4,36,110,47
Note_On,None,4,36,110,1
Note_Off,None,4,36,110,23
Note_On,None,4,36,110,1
Note_Off,None,4,36,110,23
Note_On,None,4,36,110,1
Note_Off,None,4,36,110,47
Note_On,None,4,36,110,1
Note_Off,None,4,36,110,23
Note_On,None,4,34,110,1
Note_Off,None,4,34,110,23
Note_On,None,4,34,110,1
Note_Off,None,4,34,110,47
Note_On,None,4,34,110,1
Note_Off,None,4,34,110,23
Note_On,None,4,34,110,1
Note_Off,None,4,34,110,23
Note_On,None,4,34,110,1
Note_Off,None,4,34,110,47
Note_On,None,4,34,110,1
Note_Off,None,4,34,110,23
Note_On,None,4,34,110,1
Note_Off,None,4,34,110,23
Note_On,None,4,34,110,1
Note_Off,None,4,34,110,47
Note_On,None,4,34,110,1
Note_Off,None,4,34,110,23
Note_On,None,4,34,110,1
Note_Off,None,4,34,110,23
Note_On,None,4,46,110,1
Note_Off,None,4,46,110,23
Note_On,None,4,46,110,1
Note_Off,None,4,46,110,23
Note_On,None,4,46,110,1
Note_Off,None,4,46,110,23
Note_On,None,4,43,110,1
Note_Off,None,4,43,110,23
Note_On,None,4,43,110,1
Note_Off,None,4,43,110,47
Note_On,None,4,43,110,1
Note_Off,None,4,43,110,23
Note_On,None,4,43,110,1
Note_Off,None,4,43,110,23
Note_On,None,4,43,110,1
Note_Off,None,4,43,110,47
Note_On,None,4,43,110,1
Note_Off,None,4,43,110,23
Note_On,None,4,43,110,1
Note_Off,None,4,43,110,23
Note_On,None,4,43,110,1
Note_Off,None,4,43,110,47
Note_On,None,4,43,110,1
Note_Off,None,4,43,110,23
Note_On,None,4,43,110,1
Note_Off,None,4,43,110,23
Note_On,None,4,43,110,1
Note_Off,None,4,43,110,23
Note_On,None,4,43,110,1
Note_Off,None,4,43,110,23
Note_On,None,4,43,110,1
Note_Off,None,4,43,110,23
Note_On,None,4,41,110,1
Note_Off,None,4,41,110,23
Note_On,None,4,41,110,1
Note_Off,None,4,41,110,47
Note_On,None,4,41,110,1
Note_Off,None,4,41,110,23
Note_On,None,4,41,110,1
Note_Off,None,4,41,110,23
Note_On,None,4,41,110,1
Note_Off,None,4,41,110,47
Note_On,None,4,41,110,1
Note_Off,None,4,41,110,23
Note_On,None,4,41,110,1
Note_Off,None,4,41,110,23
Note_On,None,4,41,110,1
Note_Off,None,4,41,110,23
Note_On,None,4,48,110,1
Note_Off,None,4,48,110,23
Note_On,None,4,41,110,1
Note_Off,None,4,41,110,47
Note_On,None,4,41,110,1
Note_Off,None,4,41,110,47
Note_On,None,4,40,110,1
Note_Off,None,4,40,110,23
Note_On,None,4,39,110,1
Note_Off,None,4,39,110,23
Note_On,None,4,39,110,1
Note_Off,None,4,39,110,47
Note_On,None,4,39,110,1
Note_Off,None,4,39,110,23
Note_On,None,4,39,110,1
Note_Off,None,4,39,110,23
Note_On,None,4,39,110,1
Note_Off,None,4,39,110,47
Note_On,None,4,39,110,1
Note_Off,None,4,39,110,23
Note_On,None,4,39,110,1
Note_Off,None,4,39,110,23
Note_On,None,4,39,110,1
Note_Off,None,4,39,110,47
Note_On,None,4,39,110,1
Note_Off,None,4,39,110,23
Note_On,None,4,39,110,1
Note_Off,None,4,39,110,23
Note_On,None,4,39,110,1
Note_Off,None,4,39,110,47
Note_On,None,4,39,110,1
Note_Off,None,4,39,110,23
Note_On,None,4,41,110,1
Note_Off,None,4,41,110,23
Note_On,None,4,41,110,1
Note_Off,None,4,41,110,47
Note_On,None,4,41,110,1
Note_Off,None,4,41,110,23
Note_On,None,4,41,110,1
Note_Off,None,4,41,110,23
Note_On,None,4,41,110,1
Note_Off,None,4,41,110,47
Note_On,None,4,41,110,1
Note_Off,None,4,41,110,23
Note_On,None,4,41,110,1
Note_Off,None,4,41,110,23
Note_On,None,4,41,110,1
Note_Off,None,4,41,110,47
Note_On,None,4,41,110,1
Note_Off,None,4,41,110,23
Note_On,None,4,48,110,1
Note_Off,None,4,48,110,23
Note_On,None,4,41,110,1
Note_Off,None,4,41,110,23
Note_On,None,4,45,110,1
Note_Off,None,4,45,110,23
Note_On,None,4,39,110,1
Note_Off,None,4,39,110,23
Note_On,None,4,39,53,1
Note_Off,None,4,39,53,23
Note_On,None,4,39,110,1
Note_Off,None,4,39,110,47
Note_On,None,4,39,110,1
Note_Off,None,4,39,110,23
Note_On,None,4,39,110,1
Note_Off,None,4,39,110,23
Note_On,None,4,39,110,1
Note_Off,None,4,39,110,47
Note_On,None,4,39,110,1
Note_Off,None,4,39,110,23
Note_On,None,4,39,110,1
Note_Off,None,4,39,110,23
Note_On,None,4,39,110,1
Note_Off,None,4,39,110,23
Note_On,None,4,39,110,1
Note_Off,None,4,39,110,23
Note_On,None,4,39,110,1
Note_Off,None,4,39,110,23
Note_On,None,4,39,110,1
Note_Off,None,4,39,110,23
Note_On,None,4,41,110,1
Note_Off,None,4,41,110,23
Note_On,None,4,43,110,1
Note_Off,None,4,43,110,23
Note_On,None,4,36,110,1
Note_Off,None,4,36,110,23
Note_On,None,4,43,110,1
Note_Off,None,4,43,110,23
Note_On,None,4,43,110,1
Note_Off,None,4,43,110,47
Note_On,None,4,43,110,1
Note_Off,None,4,43,110,23
Note_On,None,4,43,110,1
Note_Off,None,4,43,110,23
Note_On,None,4,43,110,1
Note_Off,None,4,43,110,47
Note_On,None,4,43,110,1
Note_Off,None,4,43,110,23
Note_On,None,4,43,110,1
Note_Off,None,4,43,110,23
Note_On,None,4,45,110,1
Note_Off,None,4,45,110,23
Note_On,None,4,46,110,1
Note_Off,None,4,46,110,23
Note_On,None,4,43,110,1
Note_Off,None,4,43,110,23
Note_On,None,4,38,110,1
Note_Off,None,4,38,110,23
Note_On,None,4,41,110,1
Note_Off,None,4,41,110,23
Note_On,None,4,36,110,1
Note_Off,None,4,36,110,23
Note_On,None,4,38,110,1
Note_Off,None,4,38,110,23
Note_On,None,4,36,110,1
Note_Off,None,4,36,110,23
Note_On,None,4,36,110,1
Note_Off,None,4,36,110,47
Note_On,None,4,36,110,1
Note_Off,None,4,36,110,23
Note_On,None,4,36,110,1
Note_Off,None,4,36,110,23
Note_On,None,4,36,110,1
Note_Off,None,4,36,110,47
Note_On,None,4,36,110,1
Note_Off,None,4,36,110,23
Note_On,None,4,36,110,1
Note_Off,None,4,36,110,23
Note_On,None,4,36,110,1
Note_Off,None,4,36,110,47
Note_On,None,4,36,110,1
Note_Off,None,4,36,110,23
Note_On,None,4,36,110,1
Note_Off,None,4,36,110,23
Note_On,None,4,36,110,1
Note_Off,None,4,36,110,47
Note_On,None,4,36,110,1
Note_Off,None,4,36,110,23
Note_On,None,4,34,110,1
Note_Off,None,4,34,110,23
Note_On,None,4,34,110,1
Note_Off,None,4,34,110,47
Note_On,None,4,34,110,1
Note_Off,None,4,34,110,23
Note_On,None,4,34,110,1
Note_Off,None,4,34,110,23
Note_On,None,4,34,110,1
Note_Off,None,4,34,110,47
Note_On,None,4,34,110,1
Note_Off,None,4,34,110,23
Note_On,None,4,34,110,1
Note_Off,None,4,34,110,23
Note_On,None,4,34,110,1
Note_Off,None,4,34,110,47
Note_On,None,4,34,110,1
Note_Off,None,4,34,110,23
Note_On,None,4,34,110,1
Note_Off,None,4,34,110,23
Note_On,None,4,46,110,1
Note_Off,None,4,46,110,23
Note_On,None,4,46,110,1
Note_Off,None,4,46,110,23
Note_On,None,4,46,110,1
Note_Off,None,4,46,110,23
Note_On,None,4,43,110,1
Note_Off,None,4,43,110,23
Note_On,None,4,43,110,1
Note_Off,None,4,43,110,47
Note_On,None,4,43,110,1
Note_Off,None,4,43,110,23
Note_On,None,4,43,110,1
Note_Off,None,4,43,110,23
Note_On,None,4,43,110,1
Note_Off,None,4,43,110,47
Note_On,None,4,43,110,1
Note_Off,None,4,43,110,23
Note_On,None,4,43,110,1
Note_Off,None,4,43,110,23
Note_On,None,4,43,110,1
Note_Off,None,4,43,110,47
Note_On,None,4,43,110,1
Note_Off,None,4,43,110,23
Note_On,None,4,43,110,1
Note_Off,None,4,43,110,23
Note_On,None,4,43,110,1
Note_Off,None,4,43,110,23
Note_On,None,4,43,110,1
Note_Off,None,4,43,110,23
Note_On,None,4,43,110,1
Note_Off,None,4,43,110,23
Note_On,None,4,41,110,1
Note_Off,None,4,41,110,23
Note_On,None,4,41,110,1
Note_Off,None,4,41,110,47
Note_On,None,4,41,110,1
Note_Off,None,4,41,110,23
Note_On,None,4,41,110,1
Note_Off,None,4,41,110,23
Note_On,None,4,41,110,1
Note_Off,None,4,41,110,47
Note_On,None,4,41,110,1
Note_Off,None,4,41,110,23
Note_On,None,4,41,110,1
Note_Off,None,4,41,110,23
Note_On,None,4,41,110,1
Note_Off,None,4,41,110,23
Note_On,None,4,48,110,1
Note_Off,None,4,48,110,23
Note_On,None,4,41,110,1
Note_Off,None,4,41,110,47
Note_On,None,4,41,110,1
Note_Off,None,4,41,110,47
Note_On,None,4,40,110,1
Note_Off,None,4,40,110,23
Note_On,None,4,39,110,1
Note_Off,None,4,39,110,23
Note_On,None,4,39,110,1
Note_Off,None,4,39,110,47
Note_On,None,4,39,110,1
Note_Off,None,4,39,110,23
Note_On,None,4,39,110,1
Note_Off,None,4,39,110,23
Note_On,None,4,39,110,1
Note_Off,None,4,39,110,47
Note_On,None,4,39,110,1
Note_Off,None,4,39,110,23
Note_On,None,4,39,110,1
Note_Off,None,4,39,110,23
Note_On,None,4,39,110,1
Note_Off,None,4,39,110,47
Note_On,None,4,39,110,1
Note_Off,None,4,39,110,23
Note_On,None,4,39,110,1
Note_Off,None,4,39,110,23
Note_On,None,4,39,110,1
Note_Off,None,4,39,110,47
Note_On,None,4,39,110,1
Note_Off,None,4,39,110,23
Note_On,None,4,41,110,1
Note_Off,None,4,41,110,23
Note_On,None,4,41,110,1
Note_Off,None,4,41,110,47
Note_On,None,4,41,110,1
Note_Off,None,4,41,110,23
Note_On,None,4,41,110,1
Note_Off,None,4,41,110,23
Note_On,None,4,41,110,1
Note_Off,None,4,41,110,47
Note_On,None,4,41,110,1
Note_Off,None,4,41,110,23
Note_On,None,4,41,110,1
Note_Off,None,4,41,110,23
Note_On,None,4,41,110,1
Note_Off,None,4,41,110,47
Note_On,None,4,41,110,1
Note_Off,None,4,41,110,23
Note_On,None,4,48,110,1
Note_Off,None,4,48,110,23
Note_On,None,4,41,110,1
Note_Off,None,4,41,110,23
Note_On,None,4,45,110,1
Note_Off,None,4,45,110,23
Note_On,None,4,39,110,1
Note_Off,None,4,39,110,23
Note_On,None,4,39,110,1
Note_Off,None,4,39,110,23
Note_On,None,4,39,110,1
Note_Off,None,4,39,110,47
Note_On,None,4,39,110,1
Note_Off,None,4,39,110,23
Note_On,None,4,39,110,1
Note_Off,None,4,39,110,23
Note_On,None,4,39,110,1
Note_Off,None,4,39,110,47
Note_On,None,4,39,110,1
Note_Off,None,4,39,110,23
Note_On,None,4,39,110,1
Note_Off,None,4,39,110,23
Note_On,None,4,39,110,1
Note_Off,None,4,39,110,23
Note_On,None,4,39,110,1
Note_Off,None,4,39,110,23
Note_On,None,4,39,110,1
Note_Off,None,4,39,110,23
Note_On,None,4,39,110,1
Note_Off,None,4,39,110,23
Note_On,None,4,41,110,1
Note_Off,None,4,41,110,23
Note_On,None,4,43,110,1
Note_Off,None,4,43,110,23
Note_On,None,4,36,110,1
Note_Off,None,4,36,110,23
Note_On,None,4,43,110,1
Note_Off,None,4,43,110,23
Note_On,None,4,43,110,1
Note_Off,None,4,43,110,47
Note_On,None,4,43,110,1
Note_Off,None,4,43,110,23
Note_On,None,4,43,110,1
Note_Off,None,4,43,110,23
Note_On,None,4,43,110,1
Note_Off,None,4,43,110,47
Note_On,None,4,43,110,1
Note_Off,None,4,43,110,23
Note_On,None,4,43,110,1
Note_Off,None,4,43,110,23
Note_On,None,4,45,110,1
Note_Off,None,4,45,110,23
Note_On,None,4,46,110,1
Note_Off,None,4,46,110,23
Note_On,None,4,43,110,1
Note_Off,None,4,43,110,23
Note_On,None,4,38,110,1
Note_Off,None,4,38,110,23
Note_On,None,4,41,110,1
Note_Off,None,4,41,110,23
Note_On,None,4,36,110,1
Note_Off,None,4,36,110,23
Note_On,None,4,38,110,1
Note_Off,None,4,38,110,23
Note_On,None,4,36,110,1
Note_Off,None,4,36,110,23
Note_On,None,4,36,110,1
Note_Off,None,4,36,110,47
Note_On,None,4,36,110,1
Note_Off,None,4,36,110,23
Note_On,None,4,36,110,1
Note_Off,None,4,36,110,23
Note_On,None,4,36,110,1
Note_Off,None,4,36,110,47
Note_On,None,4,36,110,1
Note_Off,None,4,36,110,23
Note_On,None,4,36,110,1
Note_Off,None,4,36,110,23
Note_On,None,4,36,110,1
Note_Off,None,4,36,110,47
Note_On,None,4,36,110,1
Note_Off,None,4,36,110,23
Note_On,None,4,36,110,1
Note_Off,None,4,36,110,23
Note_On,None,4,36,110,1
Note_Off,None,4,36,110,47
Note_On,None,4,36,110,1
Note_Off,None,4,36,110,23
Note_On,None,4,34,110,1
Note_Off,None,4,34,110,23
Note_On,None,4,34,110,1
Note_Off,None,4,34,110,47
Note_On,None,4,34,110,1
Note_Off,None,4,34,110,23
Note_On,None,4,34,110,1
Note_Off,None,4,34,110,23
Note_On,None,4,34,110,1
Note_Off,None,4,34,110,47
Note_On,None,4,34,110,1
Note_Off,None,4,34,110,23
Note_On,None,4,34,110,1
Note_Off,None,4,34,110,23
Note_On,None,4,34,110,1
Note_Off,None,4,34,110,47
Note_On,None,4,34,110,1
Note_Off,None,4,34,110,23
Note_On,None,4,34,110,1
Note_Off,None,4,34,110,23
Note_On,None,4,46,110,1
Note_Off,None,4,46,110,23
Note_On,None,4,46,110,1
Note_Off,None,4,46,110,23
Note_On,None,4,46,110,1
Note_Off,None,4,46,110,23
Note_On,None,4,43,110,1
Note_Off,None,4,43,110,23
Note_On,None,4,43,110,1
Note_Off,None,4,43,110,47
Note_On,None,4,43,110,1
Note_Off,None,4,43,110,23
Note_On,None,4,43,110,1
Note_Off,None,4,43,110,23
Note_On,None,4,43,110,1
Note_Off,None,4,43,110,47
Note_On,None,4,43,110,1
Note_Off,None,4,43,110,23
Note_On,None,4,43,110,1
Note_Off,None,4,43,110,23
Note_On,None,4,43,110,1
Note_Off,None,4,43,110,47
Note_On,None,4,43,110,1
Note_Off,None,4,43,110,23
Note_On,None,4,43,110,1
Note_Off,None,4,43,110,23
Note_On,None,4,43,110,1
Note_Off,None,4,43,110,23
Note_On,None,4,43,110,1
Note_Off,None,4,43,110,23
Note_On,None,4,43,110,1
Note_Off,None,4,43,110,23
Note_On,None,4,41,110,1
Note_Off,None,4,41,110,23
Note_On,None,4,41,110,1
Note_Off,None,4,41,110,47
Note_On,None,4,41,110,1
Note_Off,None,4,41,110,23
Note_On,None,4,41,110,1
Note_Off,None,4,41,110,23
Note_On,None,4,41,110,1
Note_Off,None,4,41,110,47
Note_On,None,4,41,110,1
Note_Off,None,4,41,110,23
Note_On,None,4,41,110,1
Note_Off,None,4,41,110,23
Note_On,None,4,41,110,1
Note_Off,None,4,41,110,23
Note_On,None,4,48,110,1
Note_Off,None,4,48,110,23
Note_On,None,4,41,110,1
Note_Off,None,4,41,110,47
Note_On,None,4,41,110,1
Note_Off,None,4,41,110,47
Note_On,None,4,40,110,1
Note_Off,None,4,40,110,23
Note_On,None,4,39,110,1
Note_Off,None,4,39,110,23
Note_On,None,4,39,110,1
Note_Off,None,4,39,110,47
Note_On,None,4,39,110,1
Note_Off,None,4,39,110,23
Note_On,None,4,39,110,1
Note_Off,None,4,39,110,23
Note_On,None,4,39,110,1
Note_Off,None,4,39,110,47
Note_On,None,4,39,110,1
Note_Off,None,4,39,110,23
Note_On,None,4,39,110,1
Note_Off,None,4,39,110,23
Note_On,None,4,39,110,1
Note_Off,None,4,39,110,47
Note_On,None,4,39,110,1
Note_Off,None,4,39,110,23
Note_On,None,4,39,110,1
Note_Off,None,4,39,110,23
Note_On,None,4,39,110,1
Note_Off,None,4,39,110,47
Note_On,None,4,39,110,1
Note_Off,None,4,39,110,23
Note_On,None,4,41,110,1
Note_Off,None,4,41,110,23
Note_On,None,4,41,110,1
Note_Off,None,4,41,110,47
Note_On,None,4,41,110,1
Note_Off,None,4,41,110,23
Note_On,None,4,41,110,1
Note_Off,None,4,41,110,23
Note_On,None,4,41,110,1
Note_Off,None,4,41,110,47
Note_On,None,4,41,110,1
Note_Off,None,4,41,110,23
Note_On,None,4,41,110,1
Note_Off,None,4,41,110,23
Note_On,None,4,41,110,1
Note_Off,None,4,41,110,47
Note_On,None,4,41,110,1
Note_Off,None,4,41,110,23
Note_On,None,4,48,110,1
Note_Off,None,4,48,110,23
Note_On,None,4,41,110,1
Note_Off,None,4,41,110,23
Note_On,None,4,45,110,1
Note_Off,None,4,45,110,23
Note_On,None,4,39,110,1
Note_Off,None,4,39,110,23
Controller,None,4,101,0,769
Controller,None,4,100,0,0
Controller,None,4,6,12,0
Controller,None,4,10,117,0
Controller,None,4,7,127,0
Pitch_Bend,None,4,64,0,0
Program_Change,None,4,39,0,0
Controller,None,4,101,0,0
Controller,None,4,100,0,0
Controller,None,4,6,12,0
Controller,None,4,10,117,0
Controller,None,4,7,127,0
Pitch_Bend,None,4,64,0,0
Program_Change,None,4,39,0,0
Controller,None,4,101,0,0
Controller,None,4,100,0,0
Controller,None,4,6,12,0
Controller,None,4,10,117,0
Controller,None,4,7,127,0
Pitch_Bend,None,4,64,0,0
Program_Change,None,4,39,0,0
None,End_of_Track,0,0,0,0
