Sequencer_Specific_Event,0,0,0,0
Controller,0,7,70,0
Sequence_Or_Track_Name,0,7,0,0
Controller,0,10,51,0
Program_Change,0,48,,0
Sequencer_Specific_Event,0,0,0,0
Key_Signature,0,0,0,0
Midi_Channel_Prefix_Assignment,0,1,0,0
On,0,76,64,75.8823529411765
Off,0,76,,76.235294117647
On,0,83,64,76.235294117647
Off,0,83,,77.2941176470588
On,0,76,64,77.2941176470588
Off,0,76,,77.6470588235294
On,0,81,64,77.6470588235294
Sequencer_Specific_Event,0,0,0,79.0588235294118
Off,0,81,,79.4117647058823
On,0,79,64,79.4117647058823
Off,0,79,,79.5
On,0,81,64,79.5
Off,0,81,,79.5882352941176
On,0,79,64,79.5882352941176
Off,0,79,,79.7647058823529
On,0,78,64,79.7647058823529
Off,0,78,,80.1176470588235
On,0,79,64,80.1176470588235
Off,0,79,,80.4705882352941
On,0,76,64,80.4705882352941
Off,0,76,,80.8235294117647
On,0,74,64,80.8235294117647
Sequencer_Specific_Event,0,0,0,80.8235294117647
Off,0,74,,81.1764705882353
On,0,76,64,81.1764705882353
Off,0,76,,81.5294117647059
On,0,71,64,81.5294117647059
Off,0,71,,81.8823529411765
On,0,83,64,81.8823529411765
Off,0,83,,82.9411764705882
On,0,76,64,82.9411764705882
Off,0,76,,83.2941176470588
On,0,81,64,83.2941176470588
Off,0,81,,84.3529411764706
On,0,79,64,84.3529411764706
Off,0,79,,84.4411764705882
On,0,81,64,84.4411764705882
Off,0,81,,84.5294117647059
On,0,79,64,84.5294117647059
Off,0,79,,84.7058823529412
On,0,78,64,84.7058823529412
Off,0,78,,85.0588235294118
On,0,79,64,85.0588235294118
Off,0,79,,85.4117647058823
On,0,86,64,85.4117647058823
Sequencer_Specific_Event,0,0,0,86.8235294117647
Off,0,86,,87.1764705882353
On,0,76,64,87.1764705882353
Off,0,76,,87.5294117647059
On,0,83,64,87.5294117647059
Off,0,83,,88.5882352941176
On,0,76,64,88.5882352941176
Off,0,76,,88.9411764705882
On,0,81,64,88.9411764705882
Sequencer_Specific_Event,0,0,0,90.3529411764706
Off,0,81,,90.7058823529412
On,0,79,64,90.7058823529412
Off,0,79,,90.7941176470588
On,0,81,64,90.7941176470588
Off,0,81,,90.8823529411765
On,0,79,64,90.8823529411765
Sequencer_Specific_Event,0,0,0,90.8823529411765
Off,0,79,,91.0588235294118
On,0,78,64,91.0588235294118
Off,0,78,,91.4117647058823
On,0,79,64,91.4117647058823
Sequencer_Specific_Event,0,0,0,91.4117647058823
Off,0,79,,91.7647058823529
On,0,78,64,91.7647058823529
Off,0,78,,92.1176470588235
On,0,74,64,92.1176470588235
Sequencer_Specific_Event,0,0,0,92.1176470588235
Off,0,74,,92.4705882352941
On,0,76,64,92.4705882352941
Off,0,76,,92.8235294117647
On,0,71,64,92.8235294117647
Off,0,71,,93.1764705882353
On,0,83,64,93.1764705882353
Off,0,83,,94.235294117647
On,0,76,64,94.235294117647
Off,0,76,,94.5882352941176
On,0,81,64,94.5882352941176
Off,0,81,,95.6470588235294
On,0,79,64,95.6470588235294
Off,0,79,,95.735294117647
On,0,81,64,95.735294117647
Off,0,81,,95.8235294117647
On,0,79,64,95.8235294117647
Off,0,79,,96
On,0,78,64,96
Off,0,78,,96.3529411764706
On,0,79,64,96.3529411764706
Off,0,79,,96.7058823529412
On,0,86,64,96.7058823529412
Sequencer_Specific_Event,0,0,0,98.1176470588235
Off,0,86,,98.4705882352941
On,0,86,64,98.4705882352941
Off,0,86,,98.8235294117647
On,0,88,64,98.8235294117647
Sequencer_Specific_Event,0,0,0,100.941176470588
Off,0,88,,101.294117647059
On,0,86,64,101.294117647059
Off,0,86,,101.470588235294
On,0,84,64,101.470588235294
Off,0,84,,101.647058823529
On,0,83,64,101.647058823529
Off,0,83,,103.058823529412
On,0,81,64,103.058823529412
Off,0,81,,104.470588235294
On,0,79,64,104.470588235294
Sequencer_Specific_Event,0,0,0,106.588235294118
Off,0,79,,106.941176470588
On,0,78,64,106.941176470588
Off,0,78,,107.117647058824
On,0,79,64,107.117647058824
Off,0,79,,107.294117647059
On,0,86,64,107.294117647059
Off,0,86,,108.705882352941
On,0,83,64,108.705882352941
Off,0,83,,110.117647058824
On,0,88,64,110.117647058824
Sequencer_Specific_Event,0,0,0,112.235294117647
Off,0,88,,112.588235294118
On,0,86,64,112.588235294118
Off,0,86,,112.764705882353
On,0,84,64,112.764705882353
Off,0,84,,112.941176470588
On,0,83,64,112.941176470588
Off,0,83,,114.352941176471
On,0,81,64,114.352941176471
Off,0,81,,115.764705882353
On,0,79,64,115.764705882353
Off,0,79,,116.823529411765
On,0,81,64,116.823529411765
Off,0,81,,117
On,0,83,64,117
Off,0,83,,117.176470588235
On,0,81,64,117.176470588235
Off,0,81,,118.235294117647
On,0,78,64,118.235294117647
Off,0,78,,118.588235294118
On,0,79,64,118.588235294118
Off,0,79,,118.764705882353
On,0,78,64,118.764705882353
Off,0,78,,118.941176470588
On,0,76,64,118.941176470588
Sequencer_Specific_Event,0,0,0,119.294117647059
Off,0,76,,121.411764705882
On,0,88,64,121.411764705882
Sequencer_Specific_Event,0,0,0,123.529411764706
Off,0,88,,123.882352941176
On,0,86,64,123.882352941176
Off,0,86,,124.058823529412
On,0,84,64,124.058823529412
Off,0,84,,124.235294117647
On,0,83,64,124.235294117647
Off,0,83,,125.647058823529
On,0,81,64,125.647058823529
Off,0,81,,127.058823529412
On,0,79,64,127.058823529412
Sequencer_Specific_Event,0,0,0,129.176470588235
Off,0,79,,129.529411764706
On,0,78,64,129.529411764706
Off,0,78,,129.705882352941
On,0,79,64,129.705882352941
Off,0,79,,129.882352941176
On,0,86,64,129.882352941176
Off,0,86,,131.294117647059
On,0,83,64,131.294117647059
Off,0,83,,132.705882352941
On,0,88,64,132.705882352941
Sequencer_Specific_Event,0,0,0,134.823529411765
Off,0,88,,135.176470588235
On,0,86,64,135.176470588235
Off,0,86,,135.352941176471
On,0,84,64,135.352941176471
Off,0,84,,135.529411764706
On,0,83,64,135.529411764706
Off,0,83,,136.941176470588
On,0,81,64,136.941176470588
Off,0,81,,138.352941176471
On,0,79,64,138.352941176471
Off,0,79,,139.411764705882
On,0,81,64,139.411764705882
Off,0,81,,139.588235294118
On,0,83,64,139.588235294118
Off,0,83,,139.764705882353
On,0,81,64,139.764705882353
Off,0,81,,140.823529411765
On,0,76,64,140.823529411765
Off,0,76,,141.176470588235
On,0,79,64,141.176470588235
Off,0,79,,141.352941176471
On,0,78,64,141.352941176471
Off,0,78,,141.529411764706
On,0,76,64,141.529411764706
Sequencer_Specific_Event,0,0,0,141.882352941177
Off,0,76,,144
On,0,88,64,144
Sequencer_Specific_Event,0,0,0,146.117647058824
Off,0,88,,146.470588235294
On,0,86,64,146.470588235294
Off,0,86,,146.64705882353
On,0,84,64,146.64705882353
Off,0,84,,146.823529411765
On,0,83,64,146.823529411765
Off,0,83,,148.235294117647
On,0,81,64,148.235294117647
Off,0,81,,149.64705882353
On,0,79,64,149.64705882353
Sequencer_Specific_Event,0,0,0,151.764705882353
Off,0,79,,152.117647058824
On,0,78,64,152.117647058824
Off,0,78,,152.294117647059
On,0,79,64,152.294117647059
Off,0,79,,152.470588235294
On,0,86,64,152.470588235294
Off,0,86,,153.882352941177
On,0,83,64,153.882352941177
Off,0,83,,155.294117647059
On,0,88,64,155.294117647059
Off,0,88,,157.411764705882
On,0,86,64,157.411764705882
Off,0,86,,157.764705882353
On,0,84,64,157.764705882353
Off,0,84,,158.117647058824
On,0,83,64,158.117647058824
Off,0,83,,160.235294117647
On,0,81,64,160.235294117647
Off,0,81,,160.941176470588
On,0,79,64,160.941176470588
Off,0,79,,162
On,0,81,64,162
Off,0,81,,162.176470588235
On,0,83,64,162.176470588235
Off,0,83,,162.352941176471
On,0,81,64,162.352941176471
Off,0,81,,163.411764705883
On,0,86,64,163.411764705883
Off,0,86,,163.764705882353
Sequencer_Specific_Event,0,0,0,163.764705882353
On,0,88,64,163.764705882353
Off,0,88,,165.176470588236
Sequencer_Specific_Event,0,0,0,165.176470588236
End_of_Track,0,0,0,165.176470588236
